asset_type	contributor	fallback
#when asset type is ABSY and contributor is N/P then contributor code in the ADO translation code will be EJV
ABSY	N/P	EJV
#when asset type is ABSY and contributor is blank then contributor code in the ADO translation code will be EJV
ABSY		EJV
#when asset type is GOVT and contributor is blank then no ADO will be created
GOVT		
