{
  "view" : {
    "name" : "MS",
    "viewname" : "MSCI Admin View",
    "classes" : [ {
      "name" : "DIVIDEND",
      "viewname" : "DIVIDEND",
      "writable" : true,
      "searchable" : true,
      "attributes" : [ {
        "name" : "MS+0004_LNK",
        "viewname" : "LINK FROM DIVIDEND ADO TO SECURITY ADO",
        "summaryAttribute" : false,
        "descriptionAttribute" : false,
        "keySearchAttribute" : false,
        "writable" : false,
        "classification" : [ "Reference.Related", "Related" ]
      }, {
        "name" : "MS.NAME",
        "viewname" : "MS.NAME",
        "summaryAttribute" : true,
        "descriptionAttribute" : true,
        "keySearchAttribute" : true,
        "writable" : false,
        "classification" : [ "Reference.Generic", "Summary.Reference" ]
      }, {
        "name" : "MS_DSD_002",
        "viewname" : "REINVESTMENT IN INDEX DATE",
        "summaryAttribute" : false,
        "descriptionAttribute" : false,
        "keySearchAttribute" : false,
        "writable" : false,
        "classification" : [ "Reference.Dividend - Descriptive Info" ]
      }, {
        "name" : "MS_DSD_004",
        "viewname" : "MSCI TIMESERIES CODE (DSD)",
        "summaryAttribute" : false,
        "descriptionAttribute" : false,
        "keySearchAttribute" : false,
        "writable" : false,
        "classification" : [ "Reference.Descriptive Info" ]
      }, {
        "name" : "MS_DSD_005",
        "viewname" : "MSCI DIVIDEND CODE",
        "summaryAttribute" : true,
        "descriptionAttribute" : false,
        "keySearchAttribute" : true,
        "writable" : false,
        "classification" : [ "Reference.Dividend - Descriptive Info", "Summary.Reference" ]
      }, {
        "name" : "MS_DSD_006",
        "viewname" : "XD-DATE",
        "summaryAttribute" : true,
        "descriptionAttribute" : false,
        "keySearchAttribute" : false,
        "writable" : false,
        "classification" : [ "Reference.Dividend - Descriptive Info", "Summary.Reference" ]
      }, {
        "name" : "MS_DSD_007",
        "viewname" : "DIVIDEND DESCRIPTION",
        "summaryAttribute" : true,
        "descriptionAttribute" : false,
        "keySearchAttribute" : false,
        "writable" : false,
        "classification" : [ "Reference.Dividend - Descriptive Info", "Summary.Reference" ]
      }, {
        "name" : "MS_DSD_008",
        "viewname" : "CORRECTION FLAG",
        "summaryAttribute" : false,
        "descriptionAttribute" : false,
        "keySearchAttribute" : false,
        "writable" : false,
        "classification" : [ "Reference.Dividend - Descriptive Info" ]
      }, {
        "name" : "MS_DSD_009",
        "viewname" : "DECLARED DIVIDEND AMOUNT",
        "summaryAttribute" : false,
        "descriptionAttribute" : false,
        "keySearchAttribute" : false,
        "writable" : false,
        "classification" : [ "Reference.Dividend - Descriptive Info" ]
      }, {
        "name" : "MS_DSD_010",
        "viewname" : "GROSS DIVIDEND AMOUNT",
        "summaryAttribute" : false,
        "descriptionAttribute" : false,
        "keySearchAttribute" : false,
        "writable" : false,
        "classification" : [ "Reference.Dividend - Descriptive Info" ]
      }, {
        "name" : "MS_DSD_011",
        "viewname" : "NET DIVIDEND AMOUNT INTERNATIONAL",
        "summaryAttribute" : false,
        "descriptionAttribute" : false,
        "keySearchAttribute" : false,
        "writable" : false,
        "classification" : [ "Reference.Dividend - Descriptive Info" ]
      }, {
        "name" : "MS_DSD_012",
        "viewname" : "NET DIVIDEND AMOUNT DOMESTIC",
        "summaryAttribute" : false,
        "descriptionAttribute" : false,
        "keySearchAttribute" : false,
        "writable" : false,
        "classification" : [ "Reference.Dividend - Descriptive Info" ]
      }, {
        "name" : "MS_DSD_013",
        "viewname" : "DIVIDEND ISO CURRENCY SYMBOL",
        "summaryAttribute" : false,
        "descriptionAttribute" : false,
        "keySearchAttribute" : false,
        "writable" : false,
        "classification" : [ "Reference.Dividend - Descriptive Info" ]
      }, {
        "name" : "MS_DSD_014",
        "viewname" : "DIVIDEND SUB-UNIT",
        "summaryAttribute" : false,
        "descriptionAttribute" : false,
        "keySearchAttribute" : false,
        "writable" : false,
        "classification" : [ "Reference.Dividend - Descriptive Info" ]
      }, {
        "name" : "MS_DSD_015",
        "viewname" : "DIVIDEND ADJUSTMENT FACTOR",
        "summaryAttribute" : false,
        "descriptionAttribute" : false,
        "keySearchAttribute" : false,
        "writable" : false,
        "classification" : [ "Reference.Dividend - Descriptive Info" ]
      }, {
        "name" : "MS_DSD_016",
        "viewname" : "DTR NUMBER OF SHARES",
        "summaryAttribute" : false,
        "descriptionAttribute" : false,
        "keySearchAttribute" : false,
        "writable" : false,
        "classification" : [ "Reference.Dividend - Descriptive Info" ]
      }, {
        "name" : "MS_FLW_ADO_TYPE",
        "viewname" : "ADO TYPE",
        "summaryAttribute" : true,
        "descriptionAttribute" : false,
        "keySearchAttribute" : true,
        "writable" : false,
        "classification" : [ "Reference.Generic", "Summary.Reference" ]
      } ]
    }, {
      "name" : "INDEX",
      "viewname" : "INDEX",
      "writable" : true,
      "searchable" : true,
      "attributes" : [ {
        "name" : "MS+0001_LNK",
        "viewname" : "LINK FROM INDEX ADO TO SECURITY (CONSTITUENT) ADO",
        "summaryAttribute" : false,
        "descriptionAttribute" : false,
        "keySearchAttribute" : false,
        "writable" : false,
        "classification" : [ "Reference.Related" ]
      }, {
        "name" : "MS.NAME",
        "viewname" : "MS.NAME",
        "summaryAttribute" : true,
        "descriptionAttribute" : true,
        "keySearchAttribute" : true,
        "writable" : false,
        "classification" : [ "Reference.Generic", "Summary.Reference" ]
      }, {
        "name" : "MSCI.MS_IF_TS_999",
        "viewname" : "MSCI INDEX FUTURE TABLE TS",
        "summaryAttribute" : false,
        "descriptionAttribute" : false,
        "keySearchAttribute" : false,
        "writable" : true,
        "classification" : [ "Pricing.TimeSeries", "Pricing.TimeSeriesGraph" ]
      }, {
        "name" : "MSCI.MS_ISD_999",
        "viewname" : "MSCI INDEX TABLE",
        "summaryAttribute" : false,
        "descriptionAttribute" : false,
        "keySearchAttribute" : false,
        "writable" : true,
        "classification" : [ "Pricing.TimeSeries", "Pricing.TimeSeriesGraph" ]
      }, {
        "name" : "MSCI.MS_SCF_999",
        "viewname" : "MSCI INDEX CONSTITUENTS FUTURE TABLE",
        "summaryAttribute" : false,
        "descriptionAttribute" : false,
        "keySearchAttribute" : false,
        "writable" : true,
        "classification" : [ "Pricing.TimeSeries", "Pricing.TimeSeriesGraph" ]
      }, {
        "name" : "MSCI.MS_SCSD_TS_999",
        "viewname" : "MSCI INDEX CONSTITUENTS SAME DAY TABLE TS",
        "summaryAttribute" : false,
        "descriptionAttribute" : false,
        "keySearchAttribute" : false,
        "writable" : true,
        "classification" : [ "Pricing.TimeSeries", "Pricing.TimeSeriesGraph" ]
      }, {
        "name" : "MS_FLW_ADO_TYPE",
        "viewname" : "ADO TYPE",
        "summaryAttribute" : true,
        "descriptionAttribute" : false,
        "keySearchAttribute" : true,
        "writable" : false,
        "classification" : [ "Reference.Generic", "Summary.Reference" ]
      }, {
        "name" : "MS_IF_999",
        "viewname" : "INDEX FUTURE TABLE",
        "summaryAttribute" : false,
        "descriptionAttribute" : false,
        "keySearchAttribute" : false,
        "writable" : false,
        "classification" : [ "Reference.Index - Descriptive Info" ]
      }, {
        "name" : "MS_ISD_003",
        "viewname" : "MSCI INDEX CODE",
        "summaryAttribute" : true,
        "descriptionAttribute" : false,
        "keySearchAttribute" : true,
        "writable" : false,
        "classification" : [ "Reference.Index - Descriptive Info", "Summary.Reference" ]
      }, {
        "name" : "MS_ISD_005",
        "viewname" : "MSCI INDEX NAME",
        "summaryAttribute" : true,
        "descriptionAttribute" : false,
        "keySearchAttribute" : true,
        "writable" : false,
        "classification" : [ "Reference.Index - Descriptive Info", "Summary.Reference" ]
      }, {
        "name" : "MS_ISD_006",
        "viewname" : "LAST REBALANCING DATE",
        "summaryAttribute" : false,
        "descriptionAttribute" : false,
        "keySearchAttribute" : false,
        "writable" : false,
        "classification" : [ "Reference.Index - Descriptive Info" ]
      }, {
        "name" : "MS_ISD_007",
        "viewname" : "NEXT REBALANCING DATE",
        "summaryAttribute" : false,
        "descriptionAttribute" : false,
        "keySearchAttribute" : false,
        "writable" : false,
        "classification" : [ "Reference.Index - Descriptive Info" ]
      }, {
        "name" : "MS_ISD_008",
        "viewname" : "NUMBER OF SECURITIES IN INDEX",
        "summaryAttribute" : false,
        "descriptionAttribute" : false,
        "keySearchAttribute" : false,
        "writable" : false,
        "classification" : [ "Reference.Index - Descriptive Info" ]
      }, {
        "name" : "MS_ISD_009",
        "viewname" : "NUMBER OF ISSUERS IN INDEX",
        "summaryAttribute" : false,
        "descriptionAttribute" : false,
        "keySearchAttribute" : false,
        "writable" : false,
        "classification" : [ "Reference.Index - Descriptive Info" ]
      }, {
        "name" : "MS_ISD_010",
        "viewname" : "NUMBER OF GROUP ENTITIES IN INDEX",
        "summaryAttribute" : false,
        "descriptionAttribute" : false,
        "keySearchAttribute" : false,
        "writable" : false,
        "classification" : [ "Reference.Index - Descriptive Info" ]
      }, {
        "name" : "MS_ISD_011",
        "viewname" : "INDEX VARIANT BASE DATE",
        "summaryAttribute" : false,
        "descriptionAttribute" : false,
        "keySearchAttribute" : false,
        "writable" : false,
        "classification" : [ "Reference.Index - Descriptive Info" ]
      }, {
        "name" : "MS_ISD_012",
        "viewname" : "INDEX VARIANT BASE VALUE",
        "summaryAttribute" : false,
        "descriptionAttribute" : false,
        "keySearchAttribute" : false,
        "writable" : false,
        "classification" : [ "Reference.Index - Descriptive Info" ]
      }, {
        "name" : "MS_ISD_034",
        "viewname" : "DATE OF FUNDAMENTAL RATIOS",
        "summaryAttribute" : false,
        "descriptionAttribute" : false,
        "keySearchAttribute" : false,
        "writable" : false,
        "classification" : [ "Reference.Index - Descriptive Info" ]
      }, {
        "name" : "MS_SCSD_999",
        "viewname" : "INDEX CONSTITUENTS SAME DAY TABLE",
        "summaryAttribute" : false,
        "descriptionAttribute" : false,
        "keySearchAttribute" : false,
        "writable" : false,
        "classification" : [ "Reference.Index - Descriptive Info" ]
      } ]
    }, {
      "name" : "SECURITY",
      "viewname" : "SECURITY",
      "writable" : true,
      "searchable" : true,
      "attributes" : [ {
        "name" : "MS+0002_LNK",
        "viewname" : "LINK FROM SECURITY (CONSTITUENT) ADO TO INDEX ADO",
        "summaryAttribute" : false,
        "descriptionAttribute" : false,
        "keySearchAttribute" : false,
        "writable" : false,
        "classification" : [ "Reference.Related" ]
      }, {
        "name" : "MS+0003_LNK",
        "viewname" : "LINK FROM SECURITY ADO TO DIVIDEND ADO",
        "summaryAttribute" : false,
        "descriptionAttribute" : false,
        "keySearchAttribute" : false,
        "writable" : false,
        "classification" : [ "Reference.Related" ]
      }, {
        "name" : "MS.NAME",
        "viewname" : "MS.NAME",
        "summaryAttribute" : true,
        "descriptionAttribute" : true,
        "keySearchAttribute" : true,
        "writable" : false,
        "classification" : [ "Reference.Generic", "Summary.Reference" ]
      }, {
        "name" : "MSCI.MS_SF_TS_999",
        "viewname" : "MSCI SECURITY FUTURE TABLE TS",
        "summaryAttribute" : false,
        "descriptionAttribute" : false,
        "keySearchAttribute" : false,
        "writable" : true,
        "classification" : [ "Pricing.TimeSeries", "Pricing.TimeSeriesGraph" ]
      }, {
        "name" : "MSCI.MS_SSD_999",
        "viewname" : "MSCI SECURITY SAME DAY TABLE",
        "summaryAttribute" : false,
        "descriptionAttribute" : false,
        "keySearchAttribute" : false,
        "writable" : true,
        "classification" : [ "Pricing.TimeSeries", "Pricing.TimeSeriesGraph" ]
      }, {
        "name" : "MS_FLW_ADO_TYPE",
        "viewname" : "ADO TYPE",
        "summaryAttribute" : true,
        "descriptionAttribute" : false,
        "keySearchAttribute" : true,
        "writable" : false,
        "classification" : [ "Reference.Generic", "Summary.Reference" ]
      }, {
        "name" : "MS_SCM_999",
        "viewname" : "SECURITY CODE MAP TABLE",
        "summaryAttribute" : false,
        "descriptionAttribute" : false,
        "keySearchAttribute" : false,
        "writable" : false,
        "classification" : [ "Reference.Security - Descriptive Info" ]
      }, {
        "name" : "MS_SF_999",
        "viewname" : "SECURITY FUTURE TABLE",
        "summaryAttribute" : false,
        "descriptionAttribute" : false,
        "keySearchAttribute" : false,
        "writable" : false,
        "classification" : [ "Reference.Security - Descriptive Info" ]
      }, {
        "name" : "MS_SSD_003",
        "viewname" : "MSCI SECURITY CODE",
        "summaryAttribute" : true,
        "descriptionAttribute" : false,
        "keySearchAttribute" : true,
        "writable" : false,
        "classification" : [ "Reference.Security - Descriptive Info", "Summary.Reference" ]
      }, {
        "name" : "MS_SSD_005",
        "viewname" : "SECURITY NAME",
        "summaryAttribute" : true,
        "descriptionAttribute" : false,
        "keySearchAttribute" : true,
        "writable" : false,
        "classification" : [ "Reference.Security - Descriptive Info", "Summary.Reference" ]
      }, {
        "name" : "MS_SSD_006",
        "viewname" : "MSCI GROUP ENTITY CODE",
        "summaryAttribute" : false,
        "descriptionAttribute" : false,
        "keySearchAttribute" : true,
        "writable" : false,
        "classification" : [ "Reference.Security - Descriptive Info" ]
      }, {
        "name" : "MS_SSD_007",
        "viewname" : "SHARE CLASS",
        "summaryAttribute" : false,
        "descriptionAttribute" : false,
        "keySearchAttribute" : false,
        "writable" : false,
        "classification" : [ "Reference.Security - Descriptive Info" ]
      }, {
        "name" : "MS_SSD_008",
        "viewname" : "SHARE TYPE",
        "summaryAttribute" : false,
        "descriptionAttribute" : false,
        "keySearchAttribute" : false,
        "writable" : false,
        "classification" : [ "Reference.Security - Descriptive Info" ]
      }, {
        "name" : "MS_SSD_009",
        "viewname" : "ALTERNATE LISTING",
        "summaryAttribute" : false,
        "descriptionAttribute" : false,
        "keySearchAttribute" : false,
        "writable" : false,
        "classification" : [ "Reference.Security - Descriptive Info" ]
      }, {
        "name" : "MS_SSD_010",
        "viewname" : "ISO COUNTRY SYMBOL",
        "summaryAttribute" : false,
        "descriptionAttribute" : false,
        "keySearchAttribute" : false,
        "writable" : false,
        "classification" : [ "Reference.Security - Descriptive Info" ]
      }, {
        "name" : "MS_SSD_011",
        "viewname" : "SECTOR",
        "summaryAttribute" : false,
        "descriptionAttribute" : false,
        "keySearchAttribute" : false,
        "writable" : false,
        "classification" : [ "Reference.Security - Descriptive Info" ]
      }, {
        "name" : "MS_SSD_012",
        "viewname" : "INDUSTRY GROUP",
        "summaryAttribute" : false,
        "descriptionAttribute" : false,
        "keySearchAttribute" : false,
        "writable" : false,
        "classification" : [ "Reference.Security - Descriptive Info" ]
      }, {
        "name" : "MS_SSD_013",
        "viewname" : "INDUSTRY",
        "summaryAttribute" : false,
        "descriptionAttribute" : false,
        "keySearchAttribute" : false,
        "writable" : false,
        "classification" : [ "Reference.Security - Descriptive Info" ]
      }, {
        "name" : "MS_SSD_014",
        "viewname" : "SUB-INDUSTRY",
        "summaryAttribute" : false,
        "descriptionAttribute" : false,
        "keySearchAttribute" : false,
        "writable" : false,
        "classification" : [ "Reference.Security - Descriptive Info" ]
      }, {
        "name" : "MS_SSD_037",
        "viewname" : "EVENT TYPE",
        "summaryAttribute" : false,
        "descriptionAttribute" : false,
        "keySearchAttribute" : false,
        "writable" : false,
        "classification" : [ "Reference.Security - Descriptive Info" ]
      }, {
        "name" : "MS_SSD_038",
        "viewname" : "EVENT DESCRIPTION",
        "summaryAttribute" : false,
        "descriptionAttribute" : false,
        "keySearchAttribute" : false,
        "writable" : false,
        "classification" : [ "Reference.Security - Descriptive Info" ]
      }, {
        "name" : "MS_SSD_039",
        "viewname" : "NOS COMMENT",
        "summaryAttribute" : false,
        "descriptionAttribute" : false,
        "keySearchAttribute" : false,
        "writable" : false,
        "classification" : [ "Reference.Security - Descriptive Info" ]
      }, {
        "name" : "MS_SSD_040",
        "viewname" : "PAF FORMULA",
        "summaryAttribute" : false,
        "descriptionAttribute" : false,
        "keySearchAttribute" : false,
        "writable" : false,
        "classification" : [ "Reference.Security - Descriptive Info" ]
      }, {
        "name" : "MS_SSD_041",
        "viewname" : "PRICE ADJUSTMENT FACTOR",
        "summaryAttribute" : false,
        "descriptionAttribute" : false,
        "keySearchAttribute" : false,
        "writable" : false,
        "classification" : [ "Reference.Security - Descriptive Info" ]
      }, {
        "name" : "MS_SSD_042",
        "viewname" : "FOREIGN INCLUSION FACTOR",
        "summaryAttribute" : false,
        "descriptionAttribute" : false,
        "keySearchAttribute" : false,
        "writable" : false,
        "classification" : [ "Reference.Security - Descriptive Info" ]
      }, {
        "name" : "MS_SSD_043",
        "viewname" : "DOMESTIC INCLUSION FACTOR",
        "summaryAttribute" : false,
        "descriptionAttribute" : false,
        "keySearchAttribute" : false,
        "writable" : false,
        "classification" : [ "Reference.Security - Descriptive Info" ]
      } ]
    } ],
    "statusCodeMappings" : [ {
      "statusCode" : 0,
      "statusDescription" : "Not available",
      "auto" : false
    }, {
      "statusCode" : 1,
      "statusDescription" : "Normal",
      "auto" : false
    }, {
      "statusCode" : 2,
      "statusDescription" : "Percentage failure",
      "auto" : false
    }, {
      "statusCode" : 3,
      "statusDescription" : "Manually corrected",
      "auto" : false
    }, {
      "statusCode" : 4,
      "statusDescription" : "Manually validated",
      "auto" : false
    }, {
      "statusCode" : 5,
      "statusDescription" : "Estimated",
      "auto" : false
    }, {
      "statusCode" : 63,
      "statusDescription" : "Accepted",
      "auto" : false
    }, {
      "statusCode" : 68,
      "statusDescription" : "Manually corrected & validated",
      "auto" : false
    }, {
      "statusCode" : 127,
      "statusDescription" : "Manually corrected & accepted",
      "auto" : false
    }, {
      "statusCode" : 128,
      "statusDescription" : "OHLC failure",
      "auto" : false
    }, {
      "statusCode" : 129,
      "statusDescription" : "BMA failure",
      "auto" : false
    }, {
      "statusCode" : 130,
      "statusDescription" : "Negative failure",
      "auto" : false
    }, {
      "statusCode" : 131,
      "statusDescription" : "Standard Dev failure",
      "auto" : false
    }, {
      "statusCode" : 132,
      "statusDescription" : "Formula failure",
      "auto" : false
    }, {
      "statusCode" : 133,
      "statusDescription" : "Calendar failure",
      "auto" : false
    }, {
      "statusCode" : 134,
      "statusDescription" : "Standard Dev log returns failure",
      "auto" : false
    } ],
    "typeAttributeClassificationMappings" : [ {
      "classification" : "Curves",
      "mappings" : [ {
        "from" : "TimeSeries",
        "to" : "Curve",
        "parameters" : [ ]
      } ]
    }, {
      "classification" : "Listings",
      "mappings" : [ {
        "from" : "ClassReference",
        "to" : "ClassReference",
        "parameters" : [ ]
      } ]
    }, {
      "classification" : "Pricing.TimeSeries",
      "mappings" : [ {
        "from" : "TimeSeries",
        "to" : "TimeSeries",
        "parameters" : [ ]
      } ]
    }, {
      "classification" : "Pricing.TimeSeriesGraph",
      "mappings" : [ {
        "from" : "TimeSeries",
        "to" : "TimeSeriesGraph",
        "parameters" : [ ]
      } ]
    }, {
      "classification" : "Reference.Computation",
      "mappings" : [ {
        "from" : "Base",
        "to" : "Base",
        "parameters" : [ ]
      } ]
    }, {
      "classification" : "Reference.Description",
      "mappings" : [ {
        "from" : "Base",
        "to" : "Base",
        "parameters" : [ ]
      } ]
    }, {
      "classification" : "Reference.Identifiers",
      "mappings" : [ {
        "from" : "Base",
        "to" : "Base",
        "parameters" : [ ]
      } ]
    }, {
      "classification" : "Related",
      "mappings" : [ {
        "from" : "ClassReference",
        "to" : "ClassReference",
        "parameters" : [ ]
      }, {
        "from" : "Listing",
        "to" : "ClassReference",
        "parameters" : [ ]
      }, {
        "from" : "ObjectReference",
        "to" : "ClassReference",
        "parameters" : [ ]
      } ]
    }, {
      "classification" : "Summary.Pricing",
      "mappings" : [ {
        "from" : "TimeSeries",
        "to" : "TimeSeriesSummary",
        "parameters" : [ ]
      } ]
    }, {
      "classification" : "Summary.PricingHistory",
      "mappings" : [ {
        "from" : "TimeSeries",
        "to" : "TimeSeriesGraph",
        "parameters" : [ ]
      } ]
    }, {
      "classification" : "Summary.Reference",
      "mappings" : [ {
        "from" : "Base",
        "to" : "BaseSummary",
        "parameters" : [ ]
      } ]
    }, {
      "classification" : "Summary.Related",
      "mappings" : [ {
        "from" : "ClassReference",
        "to" : "ClassReference",
        "parameters" : [ ]
      }, {
        "from" : "ObjectReference",
        "to" : "ClassReference",
        "parameters" : [ ]
      } ]
    }, {
      "classification" : "Surfaces",
      "mappings" : [ {
        "from" : "TimeSeries",
        "to" : "Surface",
        "parameters" : [ ]
      } ]
    } ],
    "attributeClassifications" : [ {
      "name" : "Summary.Pricing",
      "description" : "Pricing"
    }, {
      "name" : "Summary.PricingHistory",
      "description" : "PricingHistory"
    }, {
      "name" : "Summary.Reference",
      "description" : "Reference"
    }, {
      "name" : "Summary.Related",
      "description" : "Related"
    }, {
      "name" : "Reference.Computation",
      "description" : "Computation"
    }, {
      "name" : "Reference.Description",
      "description" : "Description"
    }, {
      "name" : "Reference.Descriptive Info",
      "description" : "Descriptive Info"
    }, {
      "name" : "Reference.Dividend - Descriptive Info",
      "description" : "Dividend - Descriptive Info"
    }, {
      "name" : "Reference.Generic",
      "description" : "Generic"
    }, {
      "name" : "Reference.Identifiers",
      "description" : "Identifiers"
    }, {
      "name" : "Reference.Index - Descriptive Info",
      "description" : "Index - Descriptive Info"
    }, {
      "name" : "Reference.Related",
      "description" : "Related"
    }, {
      "name" : "Reference.Security - Descriptive Info",
      "description" : "Security - Descriptive Info"
    }, {
      "name" : "Pricing.TimeSeries",
      "description" : "TimeSeries"
    }, {
      "name" : "Pricing.TimeSeriesGraph",
      "description" : "TimeSeriesGraph"
    }, {
      "name" : "Curves",
      "description" : "Curves"
    }, {
      "name" : "Surfaces",
      "description" : "Surfaces"
    }, {
      "name" : "Listings",
      "description" : "Listings"
    }, {
      "name" : "Related",
      "description" : "Related"
    } ]
  }
}