{
  "view": {
    "name": "PRTFLIO",
    "viewname": "Portfolio Master View (A)",
    "classes": [
      {
        "name": "Trading Book 1",
        "viewname": "Trading Book 1",
        "writable": false,
        "searchable": false,
        "attributes": [
          {
            "name": "PRTFLIO_SA_001",
            "viewname": "ID",
            "type": "String",
            "summaryAttribute": true,
            "descriptionAttribute": true,
            "writable": true,
            "isTimeSeriesType": false,
            "keySearchAttribute": true,
            "classification": [
              "Reference.TwAV Widget"
            ]
          },
          {
            "name": "PRTFLIO_SA_002",
            "viewname": "Investment Management Company",
            "type": "PRTFLIO.SA_002_TYPE",
            "summaryAttribute": true,
            "descriptionAttribute": true,
            "writable": true,
            "isTimeSeriesType": false,
            "keySearchAttribute": true,
            "classification": [
              "Reference.TwAV Widget"
            ]
          },
          {
            "name": "PRTFLIO_SA_003",
            "viewname": "Portfolio Manager",
            "type": "PRTFLIO.SA_003_TYPE",
            "summaryAttribute": true,
            "descriptionAttribute": true,
            "writable": true,
            "isTimeSeriesType": false,
            "keySearchAttribute": true,
            "classification": [
              "Reference.TwAV Widget"
            ]
          },
          {
            "name": "PRTFLIO_SA_004",
            "viewname": "Business Line",
            "type": "PRTFLIO.SA_004_TYPE",
            "summaryAttribute": true,
            "descriptionAttribute": true,
            "writable": true,
            "isTimeSeriesType": false,
            "keySearchAttribute": true,
            "classification": [
              "Reference.TwAV Widget"
            ]
          },
          {
            "name": "PRTFLIO_SA_005",
            "viewname": "Trading Area (Book)",
            "type": "PRTFLIO.SA_005_TYPE",
            "summaryAttribute": true,
            "descriptionAttribute": true,
            "writable": true,
            "isTimeSeriesType": false,
            "keySearchAttribute": true,
            "classification": [
              "Reference.TwAV Widget"
            ]
          },
          {
            "name": "PRTFLIO_SA_006",
            "viewname": "Percentage Allocation (Carveout)",
            "type": "Integer",
            "summaryAttribute": true,
            "descriptionAttribute": true,
            "writable": true,
            "isTimeSeriesType": false,
            "keySearchAttribute": true,
            "classification": [
              "Reference.TwAV Widget"
            ]
          },
          {
            "name": "PRTFLIO_SA_007",
            "viewname": "Account ID X-Ref",
            "type": "Integer",
            "summaryAttribute": true,
            "descriptionAttribute": true,
            "writable": true,
            "isTimeSeriesType": false,
            "keySearchAttribute": true,
            "classification": [
              "Reference.TwAV Widget"
            ]
          },
          {
            "name": "PRTFLIO_SA_008",
            "viewname": "Sector",
            "type": "PRTFLIO.SA_008_TYPE",
            "summaryAttribute": true,
            "descriptionAttribute": true,
            "writable": true,
            "isTimeSeriesType": false,
            "keySearchAttribute": true,
            "classification": [
              "Reference.TwAV Widget"
            ]
          },
          {
            "name": "PRTFLIO_SA_009",
            "viewname": "Strategy",
            "type": "PRTFLIO.SA_009_TYPE",
            "summaryAttribute": true,
            "descriptionAttribute": true,
            "writable": true,
            "isTimeSeriesType": false,
            "keySearchAttribute": true,
            "classification": [
              "Reference.TwAV Widget"
            ]
          },
          {
            "name": "PRTFLIO_SA_010",
            "viewname": "Team",
            "type": "PRTFLIO.SA_010_TYPE",
            "summaryAttribute": true,
            "descriptionAttribute": true,
            "writable": true,
            "isTimeSeriesType": false,
            "keySearchAttribute": true,
            "classification": [
              "Reference.TwAV Widget"
            ]
          },
          {
            "name": "PRTFLIO_SA_011",
            "viewname": "Analyst",
            "type": "PRTFLIO.SA_011_TYPE",
            "summaryAttribute": true,
            "descriptionAttribute": true,
            "writable": true,
            "isTimeSeriesType": false,
            "keySearchAttribute": true,
            "classification": [
              "Reference.TwAV Widget"
            ]
          }
        ]
      },
      {
        "name": "Trading Book 2",
        "viewname": "Trading Book 2",
        "writable": false,
        "searchable": false,
        "attributes": [
          {
            "name": "PRTFLIO_SA_001",
            "viewname": "ID",
            "type": "String",
            "summaryAttribute": true,
            "descriptionAttribute": true,
            "writable": true,
            "isTimeSeriesType": false,
            "keySearchAttribute": true,
            "classification": [
              "Reference.TwAV Widget"
            ]
          },
          {
            "name": "PRTFLIO_SA_002",
            "viewname": "Investment Management Company",
            "type": "PRTFLIO.SA_002_TYPE",
            "summaryAttribute": true,
            "descriptionAttribute": true,
            "writable": true,
            "isTimeSeriesType": false,
            "keySearchAttribute": true,
            "classification": [
              "Reference.TwAV Widget"
            ]
          },
          {
            "name": "PRTFLIO_SA_003",
            "viewname": "Portfolio Manager",
            "type": "PRTFLIO.SA_003_TYPE",
            "summaryAttribute": true,
            "descriptionAttribute": true,
            "writable": true,
            "isTimeSeriesType": false,
            "keySearchAttribute": true,
            "classification": [
              "Reference.TwAV Widget"
            ]
          },
          {
            "name": "PRTFLIO_SA_004",
            "viewname": "Business Line",
            "type": "PRTFLIO.SA_004_TYPE",
            "summaryAttribute": true,
            "descriptionAttribute": true,
            "writable": true,
            "isTimeSeriesType": false,
            "keySearchAttribute": true,
            "classification": [
              "Reference.TwAV Widget"
            ]
          },
          {
            "name": "PRTFLIO_SA_005",
            "viewname": "Trading Area (Book)",
            "type": "PRTFLIO.SA_005_TYPE",
            "summaryAttribute": true,
            "descriptionAttribute": true,
            "writable": true,
            "isTimeSeriesType": false,
            "keySearchAttribute": true,
            "classification": [
              "Reference.TwAV Widget"
            ]
          },
          {
            "name": "PRTFLIO_SA_006",
            "viewname": "Percentage Allocation (Carveout)",
            "type": "Integer",
            "summaryAttribute": true,
            "descriptionAttribute": true,
            "writable": true,
            "isTimeSeriesType": false,
            "keySearchAttribute": true,
            "classification": [
              "Reference.TwAV Widget"
            ]
          },
          {
            "name": "PRTFLIO_SA_007",
            "viewname": "Account ID X-Ref",
            "type": "Integer",
            "summaryAttribute": true,
            "descriptionAttribute": true,
            "writable": true,
            "isTimeSeriesType": false,
            "keySearchAttribute": true,
            "classification": [
              "Reference.TwAV Widget"
            ]
          },
          {
            "name": "PRTFLIO_SA_008",
            "viewname": "Sector",
            "type": "PRTFLIO.SA_008_TYPE",
            "summaryAttribute": true,
            "descriptionAttribute": true,
            "writable": true,
            "isTimeSeriesType": false,
            "keySearchAttribute": true,
            "classification": [
              "Reference.TwAV Widget"
            ]
          },
          {
            "name": "PRTFLIO_SA_009",
            "viewname": "Strategy",
            "type": "PRTFLIO.SA_009_TYPE",
            "summaryAttribute": true,
            "descriptionAttribute": true,
            "writable": true,
            "isTimeSeriesType": false,
            "keySearchAttribute": true,
            "classification": [
              "Reference.TwAV Widget"
            ]
          },
          {
            "name": "PRTFLIO_SA_010",
            "viewname": "Team",
            "type": "PRTFLIO.SA_010_TYPE",
            "summaryAttribute": true,
            "descriptionAttribute": true,
            "writable": true,
            "isTimeSeriesType": false,
            "keySearchAttribute": true,
            "classification": [
              "Reference.TwAV Widget"
            ]
          },
          {
            "name": "PRTFLIO_SA_011",
            "viewname": "Analyst",
            "type": "PRTFLIO.SA_011_TYPE",
            "summaryAttribute": true,
            "descriptionAttribute": true,
            "writable": true,
            "isTimeSeriesType": false,
            "keySearchAttribute": true,
            "classification": [
              "Reference.TwAV Widget"
            ]
          }
        ]
      },
      {
        "name": "Trading Book 3",
        "viewname": "Trading Book 3",
        "writable": false,
        "searchable": false,
        "attributes": [
          {
            "name": "PRTFLIO_SA_001",
            "viewname": "ID",
            "type": "String",
            "summaryAttribute": true,
            "descriptionAttribute": true,
            "writable": true,
            "isTimeSeriesType": false,
            "keySearchAttribute": true,
            "classification": [
              "Reference.TwAV Widget"
            ]
          },
          {
            "name": "PRTFLIO_SA_002",
            "viewname": "Investment Management Company",
            "type": "PRTFLIO.SA_002_TYPE",
            "summaryAttribute": true,
            "descriptionAttribute": true,
            "writable": true,
            "isTimeSeriesType": false,
            "keySearchAttribute": true,
            "classification": [
              "Reference.TwAV Widget"
            ]
          },
          {
            "name": "PRTFLIO_SA_003",
            "viewname": "Portfolio Manager",
            "type": "PRTFLIO.SA_003_TYPE",
            "summaryAttribute": true,
            "descriptionAttribute": true,
            "writable": true,
            "isTimeSeriesType": false,
            "keySearchAttribute": true,
            "classification": [
              "Reference.TwAV Widget"
            ]
          },
          {
            "name": "PRTFLIO_SA_004",
            "viewname": "Business Line",
            "type": "PRTFLIO.SA_004_TYPE",
            "summaryAttribute": true,
            "descriptionAttribute": true,
            "writable": true,
            "isTimeSeriesType": false,
            "keySearchAttribute": true,
            "classification": [
              "Reference.TwAV Widget"
            ]
          },
          {
            "name": "PRTFLIO_SA_005",
            "viewname": "Trading Area (Book)",
            "type": "PRTFLIO.SA_005_TYPE",
            "summaryAttribute": true,
            "descriptionAttribute": true,
            "writable": true,
            "isTimeSeriesType": false,
            "keySearchAttribute": true,
            "classification": [
              "Reference.TwAV Widget"
            ]
          },
          {
            "name": "PRTFLIO_SA_006",
            "viewname": "Percentage Allocation (Carveout)",
            "type": "Integer",
            "summaryAttribute": true,
            "descriptionAttribute": true,
            "writable": true,
            "isTimeSeriesType": false,
            "keySearchAttribute": true,
            "classification": [
              "Reference.TwAV Widget"
            ]
          },
          {
            "name": "PRTFLIO_SA_007",
            "viewname": "Account ID X-Ref",
            "type": "Integer",
            "summaryAttribute": true,
            "descriptionAttribute": true,
            "writable": true,
            "isTimeSeriesType": false,
            "keySearchAttribute": true,
            "classification": [
              "Reference.TwAV Widget"
            ]
          },
          {
            "name": "PRTFLIO_SA_008",
            "viewname": "Sector",
            "type": "PRTFLIO.SA_008_TYPE",
            "summaryAttribute": true,
            "descriptionAttribute": true,
            "writable": true,
            "isTimeSeriesType": false,
            "keySearchAttribute": true,
            "classification": [
              "Reference.TwAV Widget"
            ]
          },
          {
            "name": "PRTFLIO_SA_009",
            "viewname": "Strategy",
            "type": "PRTFLIO.SA_009_TYPE",
            "summaryAttribute": true,
            "descriptionAttribute": true,
            "writable": true,
            "isTimeSeriesType": false,
            "keySearchAttribute": true,
            "classification": [
              "Reference.TwAV Widget"
            ]
          },
          {
            "name": "PRTFLIO_SA_010",
            "viewname": "Team",
            "type": "PRTFLIO.SA_010_TYPE",
            "summaryAttribute": true,
            "descriptionAttribute": true,
            "writable": true,
            "isTimeSeriesType": false,
            "keySearchAttribute": true,
            "classification": [
              "Reference.TwAV Widget"
            ]
          },
          {
            "name": "PRTFLIO_SA_011",
            "viewname": "Analyst",
            "type": "PRTFLIO.SA_011_TYPE",
            "summaryAttribute": true,
            "descriptionAttribute": true,
            "writable": true,
            "isTimeSeriesType": false,
            "keySearchAttribute": true,
            "classification": [
              "Reference.TwAV Widget"
            ]
          }
        ]
      },
      {
        "name": "Trading Book 4",
        "viewname": "Trading Book 4",
        "writable": false,
        "searchable": false,
        "attributes": [
          {
            "name": "PRTFLIO_SA_001",
            "viewname": "ID",
            "type": "String",
            "summaryAttribute": true,
            "descriptionAttribute": true,
            "writable": true,
            "isTimeSeriesType": false,
            "keySearchAttribute": true,
            "classification": [
              "Reference.TwAV Widget"
            ]
          },
          {
            "name": "PRTFLIO_SA_002",
            "viewname": "Investment Management Company",
            "type": "PRTFLIO.SA_002_TYPE",
            "summaryAttribute": true,
            "descriptionAttribute": true,
            "writable": true,
            "isTimeSeriesType": false,
            "keySearchAttribute": true,
            "classification": [
              "Reference.TwAV Widget"
            ]
          },
          {
            "name": "PRTFLIO_SA_003",
            "viewname": "Portfolio Manager",
            "type": "PRTFLIO.SA_003_TYPE",
            "summaryAttribute": true,
            "descriptionAttribute": true,
            "writable": true,
            "isTimeSeriesType": false,
            "keySearchAttribute": true,
            "classification": [
              "Reference.TwAV Widget"
            ]
          },
          {
            "name": "PRTFLIO_SA_004",
            "viewname": "Business Line",
            "type": "PRTFLIO.SA_004_TYPE",
            "summaryAttribute": true,
            "descriptionAttribute": true,
            "writable": true,
            "isTimeSeriesType": false,
            "keySearchAttribute": true,
            "classification": [
              "Reference.TwAV Widget"
            ]
          },
          {
            "name": "PRTFLIO_SA_005",
            "viewname": "Trading Area (Book)",
            "type": "PRTFLIO.SA_005_TYPE",
            "summaryAttribute": true,
            "descriptionAttribute": true,
            "writable": true,
            "isTimeSeriesType": false,
            "keySearchAttribute": true,
            "classification": [
              "Reference.TwAV Widget"
            ]
          },
          {
            "name": "PRTFLIO_SA_006",
            "viewname": "Percentage Allocation (Carveout)",
            "type": "Integer",
            "summaryAttribute": true,
            "descriptionAttribute": true,
            "writable": true,
            "isTimeSeriesType": false,
            "keySearchAttribute": true,
            "classification": [
              "Reference.TwAV Widget"
            ]
          },
          {
            "name": "PRTFLIO_SA_007",
            "viewname": "Account ID X-Ref",
            "type": "Integer",
            "summaryAttribute": true,
            "descriptionAttribute": true,
            "writable": true,
            "isTimeSeriesType": false,
            "keySearchAttribute": true,
            "classification": [
              "Reference.TwAV Widget"
            ]
          },
          {
            "name": "PRTFLIO_SA_008",
            "viewname": "Sector",
            "type": "PRTFLIO.SA_008_TYPE",
            "summaryAttribute": true,
            "descriptionAttribute": true,
            "writable": true,
            "isTimeSeriesType": false,
            "keySearchAttribute": true,
            "classification": [
              "Reference.TwAV Widget"
            ]
          },
          {
            "name": "PRTFLIO_SA_009",
            "viewname": "Strategy",
            "type": "PRTFLIO.SA_009_TYPE",
            "summaryAttribute": true,
            "descriptionAttribute": true,
            "writable": true,
            "isTimeSeriesType": false,
            "keySearchAttribute": true,
            "classification": [
              "Reference.TwAV Widget"
            ]
          },
          {
            "name": "PRTFLIO_SA_010",
            "viewname": "Team",
            "type": "PRTFLIO.SA_010_TYPE",
            "summaryAttribute": true,
            "descriptionAttribute": true,
            "writable": true,
            "isTimeSeriesType": false,
            "keySearchAttribute": true,
            "classification": [
              "Reference.TwAV Widget"
            ]
          },
          {
            "name": "PRTFLIO_SA_011",
            "viewname": "Analyst",
            "type": "PRTFLIO.SA_011_TYPE",
            "summaryAttribute": true,
            "descriptionAttribute": true,
            "writable": true,
            "isTimeSeriesType": false,
            "keySearchAttribute": true,
            "classification": [
              "Reference.TwAV Widget"
            ]
          }
        ]
      },
      {
        "name": "Trading Book 5",
        "viewname": "Trading Book 5",
        "writable": false,
        "searchable": false,
        "attributes": [
          {
            "name": "PRTFLIO_SA_001",
            "viewname": "ID",
            "type": "String",
            "summaryAttribute": true,
            "descriptionAttribute": true,
            "writable": true,
            "isTimeSeriesType": false,
            "keySearchAttribute": true,
            "classification": [
              "Reference.TwAV Widget"
            ]
          },
          {
            "name": "PRTFLIO_SA_002",
            "viewname": "Investment Management Company",
            "type": "PRTFLIO.SA_002_TYPE",
            "summaryAttribute": true,
            "descriptionAttribute": true,
            "writable": true,
            "isTimeSeriesType": false,
            "keySearchAttribute": true,
            "classification": [
              "Reference.TwAV Widget"
            ]
          },
          {
            "name": "PRTFLIO_SA_003",
            "viewname": "Portfolio Manager",
            "type": "PRTFLIO.SA_003_TYPE",
            "summaryAttribute": true,
            "descriptionAttribute": true,
            "writable": true,
            "isTimeSeriesType": false,
            "keySearchAttribute": true,
            "classification": [
              "Reference.TwAV Widget"
            ]
          },
          {
            "name": "PRTFLIO_SA_004",
            "viewname": "Business Line",
            "type": "PRTFLIO.SA_004_TYPE",
            "summaryAttribute": true,
            "descriptionAttribute": true,
            "writable": true,
            "isTimeSeriesType": false,
            "keySearchAttribute": true,
            "classification": [
              "Reference.TwAV Widget"
            ]
          },
          {
            "name": "PRTFLIO_SA_005",
            "viewname": "Trading Area (Book)",
            "type": "PRTFLIO.SA_005_TYPE",
            "summaryAttribute": true,
            "descriptionAttribute": true,
            "writable": true,
            "isTimeSeriesType": false,
            "keySearchAttribute": true,
            "classification": [
              "Reference.TwAV Widget"
            ]
          },
          {
            "name": "PRTFLIO_SA_006",
            "viewname": "Percentage Allocation (Carveout)",
            "type": "Integer",
            "summaryAttribute": true,
            "descriptionAttribute": true,
            "writable": true,
            "isTimeSeriesType": false,
            "keySearchAttribute": true,
            "classification": [
              "Reference.TwAV Widget"
            ]
          },
          {
            "name": "PRTFLIO_SA_007",
            "viewname": "Account ID X-Ref",
            "type": "Integer",
            "summaryAttribute": true,
            "descriptionAttribute": true,
            "writable": true,
            "isTimeSeriesType": false,
            "keySearchAttribute": true,
            "classification": [
              "Reference.TwAV Widget"
            ]
          },
          {
            "name": "PRTFLIO_SA_008",
            "viewname": "Sector",
            "type": "PRTFLIO.SA_008_TYPE",
            "summaryAttribute": true,
            "descriptionAttribute": true,
            "writable": true,
            "isTimeSeriesType": false,
            "keySearchAttribute": true,
            "classification": [
              "Reference.TwAV Widget"
            ]
          },
          {
            "name": "PRTFLIO_SA_009",
            "viewname": "Strategy",
            "type": "PRTFLIO.SA_009_TYPE",
            "summaryAttribute": true,
            "descriptionAttribute": true,
            "writable": true,
            "isTimeSeriesType": false,
            "keySearchAttribute": true,
            "classification": [
              "Reference.TwAV Widget"
            ]
          },
          {
            "name": "PRTFLIO_SA_010",
            "viewname": "Team",
            "type": "PRTFLIO.SA_010_TYPE",
            "summaryAttribute": true,
            "descriptionAttribute": true,
            "writable": true,
            "isTimeSeriesType": false,
            "keySearchAttribute": true,
            "classification": [
              "Reference.TwAV Widget"
            ]
          },
          {
            "name": "PRTFLIO_SA_011",
            "viewname": "Analyst",
            "type": "PRTFLIO.SA_011_TYPE",
            "summaryAttribute": true,
            "descriptionAttribute": true,
            "writable": true,
            "isTimeSeriesType": false,
            "keySearchAttribute": true,
            "classification": [
              "Reference.TwAV Widget"
            ]
          }
        ]
      },
      {
        "name": "Trading Book 6",
        "viewname": "Trading Book 6",
        "writable": false,
        "searchable": false,
        "attributes": [
          {
            "name": "PRTFLIO_SA_001",
            "viewname": "ID",
            "type": "String",
            "summaryAttribute": true,
            "descriptionAttribute": true,
            "writable": true,
            "isTimeSeriesType": false,
            "keySearchAttribute": true,
            "classification": [
              "Reference.TwAV Widget"
            ]
          },
          {
            "name": "PRTFLIO_SA_002",
            "viewname": "Investment Management Company",
            "type": "PRTFLIO.SA_002_TYPE",
            "summaryAttribute": true,
            "descriptionAttribute": true,
            "writable": true,
            "isTimeSeriesType": false,
            "keySearchAttribute": true,
            "classification": [
              "Reference.TwAV Widget"
            ]
          },
          {
            "name": "PRTFLIO_SA_003",
            "viewname": "Portfolio Manager",
            "type": "PRTFLIO.SA_003_TYPE",
            "summaryAttribute": true,
            "descriptionAttribute": true,
            "writable": true,
            "isTimeSeriesType": false,
            "keySearchAttribute": true,
            "classification": [
              "Reference.TwAV Widget"
            ]
          },
          {
            "name": "PRTFLIO_SA_004",
            "viewname": "Business Line",
            "type": "PRTFLIO.SA_004_TYPE",
            "summaryAttribute": true,
            "descriptionAttribute": true,
            "writable": true,
            "isTimeSeriesType": false,
            "keySearchAttribute": true,
            "classification": [
              "Reference.TwAV Widget"
            ]
          },
          {
            "name": "PRTFLIO_SA_005",
            "viewname": "Trading Area (Book)",
            "type": "PRTFLIO.SA_005_TYPE",
            "summaryAttribute": true,
            "descriptionAttribute": true,
            "writable": true,
            "isTimeSeriesType": false,
            "keySearchAttribute": true,
            "classification": [
              "Reference.TwAV Widget"
            ]
          },
          {
            "name": "PRTFLIO_SA_006",
            "viewname": "Percentage Allocation (Carveout)",
            "type": "Integer",
            "summaryAttribute": true,
            "descriptionAttribute": true,
            "writable": true,
            "isTimeSeriesType": false,
            "keySearchAttribute": true,
            "classification": [
              "Reference.TwAV Widget"
            ]
          },
          {
            "name": "PRTFLIO_SA_007",
            "viewname": "Account ID X-Ref",
            "type": "Integer",
            "summaryAttribute": true,
            "descriptionAttribute": true,
            "writable": true,
            "isTimeSeriesType": false,
            "keySearchAttribute": true,
            "classification": [
              "Reference.TwAV Widget"
            ]
          },
          {
            "name": "PRTFLIO_SA_008",
            "viewname": "Sector",
            "type": "PRTFLIO.SA_008_TYPE",
            "summaryAttribute": true,
            "descriptionAttribute": true,
            "writable": true,
            "isTimeSeriesType": false,
            "keySearchAttribute": true,
            "classification": [
              "Reference.TwAV Widget"
            ]
          },
          {
            "name": "PRTFLIO_SA_009",
            "viewname": "Strategy",
            "type": "PRTFLIO.SA_009_TYPE",
            "summaryAttribute": true,
            "descriptionAttribute": true,
            "writable": true,
            "isTimeSeriesType": false,
            "keySearchAttribute": true,
            "classification": [
              "Reference.TwAV Widget"
            ]
          },
          {
            "name": "PRTFLIO_SA_010",
            "viewname": "Team",
            "type": "PRTFLIO.SA_010_TYPE",
            "summaryAttribute": true,
            "descriptionAttribute": true,
            "writable": true,
            "isTimeSeriesType": false,
            "keySearchAttribute": true,
            "classification": [
              "Reference.TwAV Widget"
            ]
          },
          {
            "name": "PRTFLIO_SA_011",
            "viewname": "Analyst",
            "type": "PRTFLIO.SA_011_TYPE",
            "summaryAttribute": true,
            "descriptionAttribute": true,
            "writable": true,
            "isTimeSeriesType": false,
            "keySearchAttribute": true,
            "classification": [
              "Reference.TwAV Widget"
            ]
          }
        ]
      }
    ],
    "statusCodeMappings": [
      {
        "statusCode": 0,
        "statusDescription": "Not available",
        "auto": false
      },
      {
        "statusCode": 1,
        "statusDescription": "Normal",
        "auto": false
      },
      {
        "statusCode": 2,
        "statusDescription": "Percentage failure",
        "auto": false
      },
      {
        "statusCode": 3,
        "statusDescription": "Manually corrected",
        "auto": false
      },
      {
        "statusCode": 4,
        "statusDescription": "Manually validated",
        "auto": false
      },
      {
        "statusCode": 5,
        "statusDescription": "Estimated",
        "auto": false
      },
      {
        "statusCode": 63,
        "statusDescription": "Accepted",
        "auto": false
      },
      {
        "statusCode": 68,
        "statusDescription": "Manually corrected & validated",
        "auto": false
      },
      {
        "statusCode": 127,
        "statusDescription": "Manually corrected & accepted",
        "auto": false
      },
      {
        "statusCode": 128,
        "statusDescription": "OHLC failure",
        "auto": false
      },
      {
        "statusCode": 129,
        "statusDescription": "BMA failure",
        "auto": false
      },
      {
        "statusCode": 130,
        "statusDescription": "Negative failure",
        "auto": false
      },
      {
        "statusCode": 131,
        "statusDescription": "Standard Dev failure",
        "auto": false
      },
      {
        "statusCode": 132,
        "statusDescription": "Formula failure",
        "auto": false
      },
      {
        "statusCode": 133,
        "statusDescription": "Calendar failure",
        "auto": false
      },
      {
        "statusCode": 134,
        "statusDescription": "Standard Dev log returns failure",
        "auto": false
      },
      {
        "statusCode": 140,
        "statusDescription": "Suspect",
        "auto": false
      },
      {
        "statusCode": 141,
        "statusDescription": "Suspect",
        "auto": false
      },
      {
        "statusCode": 145,
        "statusDescription": "Bid Ask Failure",
        "auto": false
      },
      {
        "statusCode": 150,
        "statusDescription": "Announcement Date Failure",
        "auto": false
      }
    ],
    "attributeClassifications": [
      {
        "name": "Reference.TwAV Widget",
        "description": "Reference.TwAV Widget"
      },
      {
        "name": "Custom Classification.Internal Classification",
        "description": "Custom Classification.Internal Classification"
      }
    ],
    "typeAttributeClassificationMappings": [
      {
        "classification": {
          "name": "Reference.TwAV Widget",
          "description": "Reference.TwAV Widget"
        },
        "mappings": [
          {
            "from": "Base",
            "to": "Base",
            "parameters": []
          }
        ]
      },
      {
        "classification": {
          "name": "Custom Classification.Internal Classification",
          "description": "Custom Classification.Internal Classification"
        },
        "mappings": [
          {
            "from": "Base",
            "to": "Base",
            "parameters": []
          }
        ]
      }
    ]
  }
}