{
  "PublicTypes": {

    "PRTFLIO.SA_002_TYPE": {
      "Type": "Enum",
      "ValueType": "String",
      "Values": [{
          "Value": "Point72 Asset Management",
          "Description": "Point72 Asset Management"
        },
        {
          "Value": "Point72 Hong Kong",
          "Description": "Point72 Hong Kong"
        },
        {
          "Value": "Point72 Ventures",
          "Description": "Point72 Ventures"
        }
      ]
    },

    "PRTFLIO.SA_003_TYPE": {
      "Type": "Enum",
      "ValueType": "String",
      "Values": [{
          "Value": "Portfolio Manager A",
          "Description": "Portfolio Manager A"
        },
        {
          "Value": "Portfolio Manager B",
          "Description": "Portfolio Manager B"
        }
      ]
    },

    "PRTFLIO.SA_004_TYPE": {
      "Type": "Enum",
      "ValueType": "String",
      "Values": [{
          "Value": "L/S",
          "Description": "L/S"
        },
        {
          "Value": "MACRO",
          "Description": "MACRO"
        },
        {
          "Value": "CUBIST",
          "Description": "CUBIST"
        },
        {
          "Value": "FUSION",
          "Description": "FUSION"
        }
      ]
    },

    "PRTFLIO.SA_005_TYPE": {
      "Type": "Enum",
      "ValueType": "String",
      "Values": [{
          "Value": "Trading Book 1",
          "Description": "Trading Book 1"
        },
        {
          "Value": "Trading Book 2",
          "Description": "Trading Book 2"
        },
        {
          "Value": "Trading Book 3",
          "Description": "Trading Book 3"
        },
        {
          "Value": "Trading Book 4",
          "Description": "Trading Book 4"
        },
        {
          "Value": "Trading Book 5",
          "Description": "Trading Book 5"
        },
        {
          "Value": "Trading Book 6",
          "Description": "Trading Book 6"
        }
      ]
    },

    "PRTFLIO.SA_008_TYPE": {
      "Type": "Enum",
      "ValueType": "String",
      "Values": [{
          "Value": "Apparel",
          "Description": "Apparel"
        },
        {
          "Value": "Auto Manufacturers",
          "Description": "Auto Manufacturers"
        },
        {
          "Value": "Beverages",
          "Description": "Beverages"
        },
        {
          "Value": "Computers",
          "Description": "Computers"
        },
        {
          "Value": "Media",
          "Description": "Media"
        },
        {
          "Value": "Software",
          "Description": "Software"
        }
      ]
    },

    "PRTFLIO.SA_009_TYPE": {
      "Type": "Enum",
      "ValueType": "String",
      "Values": [{
          "Value": "Value",
          "Description": "Value"
        },
        {
          "Value": "Income",
          "Description": "Income"
        },
        {
          "Value": "Growth",
          "Description": "Growth"
        },
        {
          "Value": "Small Cap",
          "Description": "Small Cap"
        },
        {
          "Value": "SR",
          "Description": "SR"
        }
      ]
    },

    "PRTFLIO.SA_010_TYPE": {
      "Type": "Enum",
      "ValueType": "String",
      "Values": [{
          "Value": "NAMR",
          "Description": "NAMR"
        },
        {
          "Value": "EMEA",
          "Description": "EMEA"
        },
        {
          "Value": "APAC",
          "Description": "APAC"
        }
      ]
    },
    "PRTFLIO.SA_012_TYPE": {
      "Type": "List",
      "ValueType": {"Type": "ObjectReference"},
	  "DataModel": "C0"
    },
    "PRTFLIO.SA_011_TYPE": {
      "Type": "Enum",
      "ValueType": "String",
      "Values": [{
          "Value": "Benjamin Graham",
          "Description": "Benjamin Graham"
        },
        {
          "Value": "John Templeton",
          "Description": "John Templeton"
        },
        {
          "Value": "Jesse Livermore",
          "Description": "Jesse Livermore"
        },
        {
          "Value": "Peter Lynch",
          "Description": "Peter Lynch"
        },
        {
          "Value": "Jack Bogle",
          "Description": "Jack Bogle"
        },
        {
          "Value": "Carl Icahn",
          "Description": "Carl Icahn"
        }
      ]
    }

  }
}
