listid	entry
C0_ALL_SO_LSA	C0_SRC27
C0_ALL_SO_LSA	C0_SRC29
C0_SO_LSA	C0_SRC27
C0_SO_LSA	C0_SRC29
C0_LSA	C0_IN_LSA
C0_LSA	C0_LI_LSA
C0_LSA	C0_C_LSA
C0_LSA	C0_ST_LSA
C0_IN_LSA	C0_IN_T001_LSA
C0_IN_LSA	C0_IN_T002_LSA
C0_IN_LSA	C0_IN_T003_LSA
C0_IN_LSA	C0_IN_T006_LSA
C0_LI_LSA	C0_LI_T001_LSA
C0_LI_LSA	C0_LI_T002_LSA
C0_LI_LSA	C0_LI_T003_LSA
C0_LI_LSA	C0_LI_T006_LSA
C0_C_LSA	C0_C_T005_LSA
C0_ST_LSA	C0_ST_T005_LSA
C0_IN_T001_LSA	C0_IN_T001_0002_LSA
C0_IN_T001_LSA	C0_IN_T001_0003_LSA
C0_IN_T001_LSA	C0_IN_T001_0004_LSA
C0_IN_T001_LSA	C0_IN_T001_0005_LSA
C0_IN_T001_LSA	C0_IN_T001_0006_LSA
C0_IN_T001_LSA	C0_IN_T001_0007_LSA
C0_IN_T001_LSA	C0_IN_T001_0008_LSA
C0_IN_T001_LSA	C0_SO_LSA
C0_IN_T002_LSA	C0_IN_T002_0002_LSA
C0_IN_T002_LSA	C0_IN_T002_0003_LSA
C0_IN_T002_LSA	C0_IN_T002_0004_LSA
C0_IN_T002_LSA	C0_IN_T002_0005_LSA
C0_IN_T002_LSA	C0_IN_T002_0006_LSA
C0_IN_T002_LSA	C0_IN_T002_0007_LSA
C0_IN_T002_LSA	C0_IN_T002_0008_LSA
C0_IN_T002_LSA	C0_IN_T002_0009_LSA
C0_IN_T002_LSA	C0_SO_LSA
C0_IN_T003_LSA	C0_IN_T003_0002_LSA
C0_IN_T003_LSA	C0_IN_T003_0003_LSA
C0_IN_T003_LSA	C0_IN_T003_0004_LSA
C0_IN_T003_LSA	C0_IN_T003_0005_LSA
C0_IN_T003_LSA	C0_SO_LSA
C0_IN_T006_LSA	C0_IN_T006_0002_LSA
C0_IN_T006_LSA	C0_IN_T006_0003_LSA
C0_IN_T006_LSA	C0_IN_T006_0004_LSA
C0_IN_T006_LSA	C0_IN_T006_0005_LSA
C0_IN_T006_LSA	C0_IN_T006_0006_LSA
C0_IN_T006_LSA	C0_IN_T006_0007_LSA
C0_IN_T006_LSA	C0_IN_T006_0008_LSA
C0_IN_T006_LSA	C0_IN_T006_0009_LSA
C0_IN_T006_LSA	C0_SO_LSA
C0_LI_T001_LSA	C0_LI_T001_0002_LSA
C0_LI_T001_LSA	C0_LI_T001_0004_LSA
C0_LI_T001_LSA	C0_LI_T001_0005_LSA
C0_LI_T001_LSA	C0_LI_T001_0009_LSA
C0_LI_T001_LSA	C0_SO_LSA
C0_LI_T002_LSA	C0_LI_T002_0002_LSA
C0_LI_T002_LSA	C0_LI_T002_0004_LSA
C0_LI_T002_LSA	C0_LI_T002_0005_LSA
C0_LI_T002_LSA	C0_LI_T002_0010_LSA
C0_LI_T002_LSA	C0_SO_LSA
C0_LI_T003_LSA	C0_LI_T003_0002_LSA
C0_LI_T003_LSA	C0_LI_T003_0004_LSA
C0_LI_T003_LSA	C0_LI_T003_0005_LSA
C0_LI_T003_LSA	C0_LI_T003_0010_LSA
C0_LI_T003_LSA	C0_SO_LSA
C0_LI_T006_LSA	C0_LI_T006_0002_LSA
C0_LI_T006_LSA	C0_LI_T006_0004_LSA
C0_LI_T006_LSA	C0_LI_T006_0005_LSA
C0_LI_T006_LSA	C0_LI_T006_0010_LSA
C0_LI_T006_LSA	C0_SO_LSA
C0_C_T005_LSA	C0_C_T005_0002_LSA
C0_C_T005_LSA	C0_C_T005_0004_LSA
C0_C_T005_LSA	C0_C_T005_0005_LSA
C0_C_T005_LSA	C0_SO_LSA
C0_ST_T005_LSA	C0_ST_T005_0002_LSA
C0_ST_T005_LSA	C0_ST_T005_0004_LSA
C0_ST_T005_LSA	C0_ST_T005_0005_LSA
C0_ST_T005_LSA	C0_ST_T005_0006_LSA
C0_ST_T005_LSA	C0_SO_LSA
C0_IN_T001_0002_LSA	C0_I0289
C0_IN_T001_0002_LSA	C0_I0199
C0_IN_T001_0002_LSA	C0_I0416
C0_IN_T001_0002_LSA	C0_I0046
C0_IN_T001_0002_LSA	C0_I0022
C0_IN_T001_0002_LSA	C0_I0434
C0_IN_T001_0002_LSA	C0_I0435
C0_IN_T001_0002_LSA	C0_I0174
C0_IN_T001_0002_LSA	C0_I0332
C0_IN_T001_0002_LSA	C0_I0133
C0_IN_T001_0002_LSA	C0_I0290
C0_IN_T001_0002_LSA	C0_I0092
C0_IN_T001_0002_LSA	C0_I0384
C0_IN_T001_0002_LSA	C0_I0140
C0_IN_T001_0002_LSA	C0_I0139
C0_IN_T001_0002_LSA	C0_I0021
C0_IN_T001_0002_LSA	C0_I0383
C0_IN_T001_0002_LSA	C0_I0385
C0_IN_T001_0002_LSA	C0_I0218
C0_IN_T001_0002_LSA	C0_I0135
C0_IN_T001_0002_LSA	C0_I0143
C0_IN_T001_0002_LSA	C0_I0224
C0_IN_T001_0002_LSA	C0_I0225
C0_IN_T001_0002_LSA	C0_I0282
C0_IN_T001_0002_LSA	C0_I0354
C0_IN_T001_0002_LSA	C0_I0226
C0_IN_T001_0002_LSA	C0_I0083
C0_IN_T001_0002_LSA	C0_I0084
C0_IN_T001_0002_LSA	C0_I0283
C0_IN_T001_0002_LSA	C0_I0327
C0_IN_T001_0002_LSA	C0_I0328
C0_IN_T001_0002_LSA	C0_I0365
C0_IN_T001_0002_LSA	C0+I0365
C0_IN_T001_0002_LSA	C0_I0253
C0_IN_T001_0002_LSA	C0_I0358
C0_IN_T001_0002_LSA	C0+I0358
C0_IN_T001_0002_LSA	C0_I0359
C0_IN_T001_0002_LSA	C0_I0128
C0_IN_T001_0002_LSA	C0_I0356
C0_IN_T001_0002_LSA	C0+I0356
C0_IN_T001_0002_LSA	C0_I0357
C0_IN_T001_0002_LSA	C0_I0326
C0_IN_T001_0003_LSA	C0_I0011
C0_IN_T001_0003_LSA	C0_I0166
C0_IN_T001_0003_LSA	C0_I0162
C0_IN_T001_0003_LSA	C0_I0110
C0_IN_T001_0003_LSA	C0_I0298
C0_IN_T001_0003_LSA	C0_I0115
C0_IN_T001_0003_LSA	C0_I0017
C0_IN_T001_0003_LSA	C0_I0427
C0_IN_T001_0003_LSA	C0_I0116
C0_IN_T001_0003_LSA	C0_I0338
C0_IN_T001_0003_LSA	C0_I0339
C0_IN_T001_0003_LSA	C0_I0340
C0_IN_T001_0003_LSA	C0_I0114
C0_IN_T001_0003_LSA	C0_I0005
C0_IN_T001_0003_LSA	C0_I0006
C0_IN_T001_0003_LSA	C0_I0317
C0_IN_T001_0003_LSA	C0_I0318
C0_IN_T001_0003_LSA	C0_I0023
C0_IN_T001_0003_LSA	C0_I0252
C0_IN_T001_0003_LSA	C0_I0142
C0_IN_T001_0003_LSA	C0_I0366
C0_IN_T001_0003_LSA	C0_I0024
C0_IN_T001_0003_LSA	C0_I0381
C0_IN_T001_0003_LSA	C0_I0008
C0_IN_T001_0003_LSA	C0_I0025
C0_IN_T001_0003_LSA	C0_I0014
C0_IN_T001_0003_LSA	C0_I0015
C0_IN_T001_0003_LSA	C0_I0341
C0_IN_T001_0003_LSA	C0_I0342
C0_IN_T001_0003_LSA	C0_I0343
C0_IN_T001_0004_LSA	C0_I0372
C0_IN_T001_0004_LSA	C0_I0373
C0_IN_T001_0004_LSA	C0_I0449
C0_IN_T001_0004_LSA	C0_I0414
C0_IN_T001_0004_LSA	C0_I0417
C0_IN_T001_0004_LSA	C0_I0418
C0_IN_T001_0004_LSA	C0_I0419
C0_IN_T001_0004_LSA	C0_I0420
C0_IN_T001_0004_LSA	C0_I0421
C0_IN_T001_0004_LSA	C0_I0422
C0_IN_T001_0004_LSA	C0_I0423
C0_IN_T001_0004_LSA	C0_I0424
C0_IN_T001_0004_LSA	C0_I0425
C0_IN_T001_0004_LSA	C0_I0020
C0_IN_T001_0004_LSA	C0_I0129
C0_IN_T001_0004_LSA	C0_I0131
C0_IN_T001_0004_LSA	C0_I0082
C0_IN_T001_0004_LSA	C0_I0482
C0_IN_T001_0004_LSA	C0_I0415
C0_IN_T001_0004_LSA	C0_I0288
C0_IN_T001_0004_LSA	C0_I0287
C0_IN_T001_0004_LSA	C0_I0345
C0_IN_T001_0004_LSA	C0_I0012
C0_IN_T001_0004_LSA	C0_I0431
C0_IN_T001_0004_LSA	C0_I0364
C0_IN_T001_0004_LSA	C0_I0291
C0_IN_T001_0004_LSA	C0_I0292
C0_IN_T001_0004_LSA	C0_I0293
C0_IN_T001_0004_LSA	C0_I0347
C0_IN_T001_0004_LSA	C0_I0348
C0_IN_T001_0004_LSA	C0_I0349
C0_IN_T001_0004_LSA	C0_I0350
C0_IN_T001_0004_LSA	C0_I0351
C0_IN_T001_0004_LSA	C0_I0426
C0_IN_T001_0004_LSA	C0_I0444
C0_IN_T001_0004_LSA	C0_I0479
C0_IN_T001_0004_LSA	C0_I0480
C0_IN_T001_0004_LSA	C0_I0481
C0_IN_T001_0005_LSA	C0+I0097
C0_IN_T001_0005_LSA	C0_I0003
C0_IN_T001_0005_LSA	C0_I0053
C0_IN_T001_0005_LSA	C0_I0045
C0_IN_T001_0005_LSA	C0+I0445
C0_IN_T001_0005_LSA	C0+I0095
C0_IN_T001_0005_LSA	C0_I0346
C0_IN_T001_0005_LSA	C0+I0205
C0_IN_T001_0005_LSA	C0+I0220
C0_IN_T001_0005_LSA	C0_I0063
C0_IN_T001_0005_LSA	C0+I0062
C0_IN_T001_0005_LSA	C0_I0101
C0_IN_T001_0005_LSA	C0+I0107
C0_IN_T001_0005_LSA	C0_I0035
C0_IN_T001_0005_LSA	C0_I0030
C0_IN_T001_0005_LSA	C0_I0031
C0_IN_T001_0005_LSA	C0_I0041
C0_IN_T001_0005_LSA	C0_I0043
C0_IN_T001_0005_LSA	C0_I0042
C0_IN_T001_0005_LSA	C0_I0285
C0_IN_T001_0005_LSA	C0_I0155
C0_IN_T001_0005_LSA	C0_I0027
C0_IN_T001_0005_LSA	C0_I0028
C0_IN_T001_0005_LSA	C0_I0154
C0_IN_T001_0005_LSA	C0_I0032
C0_IN_T001_0005_LSA	C0_I0034
C0_IN_T001_0005_LSA	C0_I0153
C0_IN_T001_0005_LSA	C0_I0036
C0_IN_T001_0005_LSA	C0_I0038
C0_IN_T001_0005_LSA	C0_I0039
C0_IN_T001_0005_LSA	C0_I0152
C0_IN_T001_0005_LSA	C0_I0151
C0_IN_T001_0005_LSA	C0_I0150
C0_IN_T001_0005_LSA	C0_I0380
C0_IN_T001_0005_LSA	C0_I0141
C0_IN_T001_0005_LSA	C0_I0361
C0_IN_T001_0005_LSA	C0_I0243
C0_IN_T001_0005_LSA	C0_I0242
C0_IN_T001_0005_LSA	C0_I0371
C0_IN_T001_0005_LSA	C0_I0411
C0_IN_T001_0005_LSA	C0_I0412
C0_IN_T001_0005_LSA	C0_I0323
C0_IN_T001_0005_LSA	C0_I0460
C0_IN_T001_0005_LSA	C0_I0451
C0_IN_T001_0005_LSA	C0_I0476
C0_IN_T001_0005_LSA	C0_I0593
C0_IN_T001_0005_LSA	C0_I0452
C0_IN_T001_0005_LSA	C0_I0353
C0_IN_T001_0005_LSA	C0_I0596
C0_IN_T001_0006_LSA	C0_I0057
C0_IN_T001_0006_LSA	C0_I0325
C0_IN_T001_0006_LSA	C0_I0324
C0_IN_T001_0006_LSA	C0_I0330
C0_IN_T001_0006_LSA	C0_I0459
C0_IN_T001_0006_LSA	C0_I0058
C0_IN_T001_0006_LSA	C0_I0112
C0_IN_T001_0006_LSA	C0_I0060
C0_IN_T001_0006_LSA	C0_I0061
C0_IN_T001_0006_LSA	C0_I0113
C0_IN_T001_0006_LSA	C0_I0056
C0_IN_T001_0006_LSA	C0_I0094
C0_IN_T001_0006_LSA	C0_I0158
C0_IN_T001_0006_LSA	C0_I0191
C0_IN_T001_0006_LSA	C0_I0299
C0_IN_T001_0006_LSA	C0_I0300
C0_IN_T001_0006_LSA	C0_I0136
C0_IN_T001_0006_LSA	C0_I0161
C0_IN_T001_0006_LSA	C0_I0149
C0_IN_T001_0006_LSA	C0_I0214
C0_IN_T001_0006_LSA	C0_I0016
C0_IN_T001_0006_LSA	C0_I0130
C0_IN_T001_0006_LSA	C0_I0301
C0_IN_T001_0006_LSA	C0_I0106
C0_IN_T001_0006_LSA	C0_I0189
C0_IN_T001_0006_LSA	C0_I0239
C0_IN_T001_0006_LSA	C0_I0240
C0_IN_T001_0006_LSA	C0_I0069
C0_IN_T001_0006_LSA	C0_I0370
C0_IN_T001_0006_LSA	C0+I0369
C0_IN_T001_0006_LSA	C0_I0070
C0_IN_T001_0006_LSA	C0_I0262
C0_IN_T001_0006_LSA	C0_I0164
C0_IN_T001_0006_LSA	C0_I0362
C0_IN_T001_0006_LSA	C0_I0363
C0_IN_T001_0006_LSA	C0_I0319
C0_IN_T001_0006_LSA	C0_I0320
C0_IN_T001_0006_LSA	C0_I0067
C0_IN_T001_0006_LSA	C0_I0255
C0_IN_T001_0006_LSA	C0_I0377
C0_IN_T001_0006_LSA	C0_I0244
C0_IN_T001_0006_LSA	C0_I0071
C0_IN_T001_0006_LSA	C0_I0072
C0_IN_T001_0006_LSA	C0_I0303
C0_IN_T001_0006_LSA	C0_I0302
C0_IN_T001_0006_LSA	C0_I0304
C0_IN_T001_0006_LSA	C0_I0102
C0_IN_T001_0006_LSA	C0_I0103
C0_IN_T001_0006_LSA	C0_I0122
C0_IN_T001_0006_LSA	C0_I0065
C0_IN_T001_0006_LSA	C0_I0295
C0_IN_T001_0006_LSA	C0_I0296
C0_IN_T001_0006_LSA	C0_I0329
C0_IN_T001_0006_LSA	C0_I0428
C0_IN_T001_0006_LSA	C0_I0429
C0_IN_T001_0006_LSA	C0_I0256
C0_IN_T001_0006_LSA	C0_I0374
C0_IN_T001_0006_LSA	C0_I0257
C0_IN_T001_0006_LSA	C0_I0375
C0_IN_T001_0006_LSA	C0_I0258
C0_IN_T001_0006_LSA	C0_I0379
C0_IN_T001_0006_LSA	C0_I0165
C0_IN_T001_0006_LSA	C0_I0376
C0_IN_T001_0007_LSA	C0+I0199
C0_IN_T001_0007_LSA	C0_I0248
C0_IN_T001_0007_LSA	C0_I0249
C0_IN_T001_0007_LSA	C0_I0107
C0_IN_T001_0007_LSA	C0_I0250
C0_IN_T001_0007_LSA	C0_I0251
C0_IN_T001_0007_LSA	C0_I0221
C0_IN_T001_0007_LSA	C0_I0157
C0_IN_T001_0007_LSA	C0_I0062
C0_IN_T001_0007_LSA	C0_I0159
C0_IN_T001_0007_LSA	C0_I0160
C0_IN_T001_0007_LSA	C0_I0222
C0_IN_T001_0007_LSA	C0_I0176
C0_IN_T001_0007_LSA	C0_I0179
C0_IN_T001_0007_LSA	C0_I0177
C0_IN_T001_0007_LSA	C0_I0178
C0_IN_T001_0007_LSA	C0_I0200
C0_IN_T001_0007_LSA	C0_I0263
C0_IN_T001_0007_LSA	C0_I0201
C0_IN_T001_0007_LSA	C0_I0264
C0_IN_T001_0007_LSA	C0_I0202
C0_IN_T001_0007_LSA	C0_I0265
C0_IN_T001_0007_LSA	C0_I0203
C0_IN_T001_0007_LSA	C0_I0266
C0_IN_T001_0007_LSA	C0_I0204
C0_IN_T001_0007_LSA	C0_I0267
C0_IN_T001_0008_LSA	C0_I0227
C0_IN_T001_0008_LSA	C0_I0270
C0_IN_T001_0008_LSA	C0_I0078
C0_IN_T001_0008_LSA	C0_I0077
C0_IN_T001_0008_LSA	C0_I0309
C0_IN_T001_0008_LSA	C0_I0310
C0_IN_T001_0008_LSA	C0_I0378
C0_IN_T001_0008_LSA	C0_I0312
C0_IN_T001_0008_LSA	C0_I0313
C0_IN_T001_0008_LSA	C0_I0091
C0_IN_T001_0008_LSA	C0_I0206
C0_IN_T001_0008_LSA	C0_I0207
C0_IN_T001_0008_LSA	C0_I0075
C0_IN_T001_0008_LSA	C0_I0076
C0_IN_T001_0008_LSA	C0_I0259
C0_IN_T001_0008_LSA	C0_I0079
C0_IN_T001_0008_LSA	C0_I0080
C0_IN_T001_0008_LSA	C0_I0331
C0_IN_T001_0008_LSA	C0_I0096
C0_IN_T001_0008_LSA	C0_I0260
C0_IN_T001_0008_LSA	C0_I0322
C0_IN_T001_0008_LSA	C0_I0100
C0_IN_T001_0008_LSA	C0_I0446
C0_IN_T001_0008_LSA	C0_I0447
C0_IN_T001_0008_LSA	C0_I0064
C0_IN_T001_0008_LSA	C0_I0261
C0_IN_T001_0008_LSA	C0_I0097
C0_IN_T001_0008_LSA	C0_I0098
C0_IN_T001_0008_LSA	C0_I0276
C0_IN_T001_0008_LSA	C0_I0277
C0_IN_T001_0008_LSA	C0_I0316
C0_IN_T001_0008_LSA	C0_I0367
C0_IN_T001_0008_LSA	C0_I0209
C0_IN_T001_0008_LSA	C0_I0124
C0_IN_T001_0008_LSA	C0_I0126
C0_IN_T001_0008_LSA	C0_I0125
C0_IN_T001_0008_LSA	C0_I0123
C0_IN_T001_0008_LSA	C0_I0228
C0_IN_T001_0008_LSA	C0_I0314
C0_IN_T001_0008_LSA	C0_I0315
C0_IN_T001_0008_LSA	C0_I0175
C0_IN_T001_0008_LSA	C0_I0269
C0_IN_T001_0008_LSA	C0_I0147
C0_IN_T001_0008_LSA	C0_I0145
C0_IN_T001_0008_LSA	C0_I0272
C0_IN_T001_0008_LSA	C0_I0273
C0_IN_T001_0008_LSA	C0_I0305
C0_IN_T001_0008_LSA	C0_I0306
C0_IN_T001_0008_LSA	C0_I0198
C0_IN_T001_0008_LSA	C0_I0197
C0_IN_T001_0008_LSA	C0_I0274
C0_IN_T001_0008_LSA	C0_I0275
C0_IN_T001_0008_LSA	C0_I0307
C0_IN_T001_0008_LSA	C0_I0308
C0_IN_T001_0008_LSA	C0_I0013
C0_IN_T001_0008_LSA	C0_I0085
C0_IN_T001_0008_LSA	C0_I0086
C0_IN_T001_0008_LSA	C0_I0146
C0_IN_T001_0008_LSA	C0_I0088
C0_IN_T001_0008_LSA	C0_I0087
C0_IN_T001_0008_LSA	C0_I0090
C0_IN_T001_0008_LSA	C0_I0089
C0_IN_T001_0008_LSA	C0_I0321
C0_LI_T001_0002_LSA	C0_I0247
C0_LI_T001_0002_LSA	C0_I0054
C0_LI_T001_0002_LSA	C0_I0047
C0_LI_T001_0002_LSA	C0+I0473
C0_LI_T001_0002_LSA	C0+I0047
C0_LI_T001_0002_LSA	C0_I0007
C0_LI_T001_0002_LSA	C0_I0334
C0_LI_T001_0002_LSA	C0_I0335
C0_LI_T001_0002_LSA	C0_I0336
C0_LI_T001_0002_LSA	C0_I0337
C0_LI_T001_0002_LSA	C0_I0093
C0_LI_T001_0002_LSA	C0_I0458
C0_LI_T001_0002_LSA	C0_I0073
C0_LI_T001_0002_LSA	C0_I0074
C0_LI_T001_0002_LSA	C0_I0279
C0_LI_T001_0002_LSA	C0_I0355
C0_LI_T001_0002_LSA	C0_I0049
C0_LI_T001_0002_LSA	C0_I0048
C0_LI_T001_0002_LSA	C0_I0052
C0_LI_T001_0002_LSA	C0_I0050
C0_LI_T001_0002_LSA	C0_I0051
C0_LI_T001_0002_LSA	C0_I0448
C0_LI_T001_0002_LSA	C0+I0448
C0_LI_T001_0004_LSA	C0_I0002
C0_LI_T001_0005_LSA	C0+I0096
C0_LI_T001_0005_LSA	C0_I0003
C0_LI_T001_0005_LSA	C0_I0059
C0_LI_T001_0005_LSA	C0_I0053
C0_LI_T001_0005_LSA	C0_I0045
C0_LI_T001_0005_LSA	C0+I0445
C0_LI_T001_0005_LSA	C0+I0095
C0_LI_T001_0005_LSA	C0+I0208
C0_LI_T001_0005_LSA	C0+I0220
C0_LI_T001_0005_LSA	C0_I0035
C0_LI_T001_0005_LSA	C0_I0030
C0_LI_T001_0005_LSA	C0_I0031
C0_LI_T001_0005_LSA	C0_I0043
C0_LI_T001_0005_LSA	C0_I0041
C0_LI_T001_0005_LSA	C0_I0042
C0_LI_T001_0005_LSA	C0_I0111
C0_LI_T001_0005_LSA	C0_I0156
C0_LI_T001_0005_LSA	C0_I0465
C0_LI_T001_0005_LSA	C0_I0040
C0_LI_T001_0005_LSA	C0_I0441
C0_LI_T001_0005_LSA	C0_I0452
C0_LI_T001_0005_LSA	C0_I0453
C0_LI_T001_0005_LSA	C0_I0442
C0_LI_T001_0005_LSA	C0_I0450
C0_LI_T001_0005_LSA	C0_I0451
C0_LI_T001_0005_LSA	C0_I0460
C0_LI_T001_0005_LSA	C0_I0593
C0_LI_T001_0005_LSA	C0_I0596
C0_LI_T001_0009_LSA	C0_I0483
C0_LI_T001_0009_LSA	C0_I0484
C0_LI_T001_0009_LSA	C0_I0485
C0_LI_T001_0009_LSA	C0_I0486
C0_LI_T001_0009_LSA	C0_I0487
C0_LI_T001_0009_LSA	C0_I0488
C0_LI_T001_0009_LSA	C0_I0489
C0_LI_T001_0009_LSA	C0_I0490
C0_LI_T001_0009_LSA	C0_I0491
C0_LI_T001_0009_LSA	C0_I0492
C0_LI_T001_0009_LSA	C0_I0493
C0_LI_T001_0009_LSA	C0_I0494
C0_LI_T001_0009_LSA	C0_I0495
C0_LI_T001_0009_LSA	C0_I0496
C0_LI_T001_0009_LSA	C0_I0497
C0_LI_T001_0009_LSA	C0_I0498
C0_LI_T001_0009_LSA	C0_I0499
C0_LI_T001_0009_LSA	C0_I0500
C0_LI_T001_0009_LSA	C0_I0501
C0_LI_T001_0009_LSA	C0_I0502
C0_LI_T001_0009_LSA	C0_I0503
C0_LI_T001_0009_LSA	C0_I0504
C0_LI_T001_0009_LSA	C0_I0505
C0_LI_T001_0009_LSA	C0_I0506
C0_LI_T001_0009_LSA	C0_I0507
C0_LI_T001_0009_LSA	C0_I0508
C0_LI_T001_0009_LSA	C0_I0509
C0_LI_T001_0009_LSA	C0_I0510
C0_LI_T001_0009_LSA	C0_I0511
C0_LI_T001_0009_LSA	C0_I0512
C0_LI_T001_0009_LSA	C0_I0513
C0_LI_T001_0009_LSA	C0_I0514
C0_LI_T001_0009_LSA	C0_I0515
C0_LI_T001_0009_LSA	C0_I0516
C0_LI_T001_0009_LSA	C0_I0517
C0_LI_T001_0009_LSA	C0_I0518
C0_LI_T001_0009_LSA	C0_I0519
C0_LI_T001_0009_LSA	C0_I0520
C0_LI_T001_0009_LSA	C0_I0521
C0_LI_T001_0009_LSA	C0_I0522
C0_LI_T001_0009_LSA	C0_I0523
C0_LI_T001_0009_LSA	C0_I0524
C0_LI_T001_0009_LSA	C0_I0525
C0_LI_T001_0009_LSA	C0_I0526
C0_LI_T001_0009_LSA	C0_I0527
C0_LI_T001_0009_LSA	C0_I0528
C0_LI_T001_0009_LSA	C0_I0529
C0_LI_T001_0009_LSA	C0_I0530
C0_LI_T001_0009_LSA	C0_I0531
C0_LI_T001_0009_LSA	C0_I0532
C0_LI_T001_0009_LSA	C0_I0533
C0_LI_T001_0009_LSA	C0_I0534
C0_LI_T001_0009_LSA	C0_I0535
C0_LI_T001_0009_LSA	C0_I0536
C0_LI_T001_0009_LSA	C0_I0537
C0_LI_T001_0009_LSA	C0_I0538
C0_LI_T001_0009_LSA	C0_I0539
C0_LI_T001_0009_LSA	C0_I0540
C0_LI_T001_0009_LSA	C0_I0541
C0_LI_T001_0009_LSA	C0_I0542
C0_LI_T001_0009_LSA	C0_I0543
C0_LI_T001_0009_LSA	C0_I0544
C0_LI_T001_0009_LSA	C0_I0545
C0_LI_T001_0009_LSA	C0_I0546
C0_LI_T001_0009_LSA	C0_I0547
C0_LI_T001_0009_LSA	C0_I0548
C0_LI_T001_0009_LSA	C0_I0549
C0_LI_T001_0009_LSA	C0_I0550
C0_LI_T001_0009_LSA	C0_I0551
C0_LI_T001_0009_LSA	C0_I0552
C0_LI_T001_0009_LSA	C0_I0553
C0_LI_T001_0009_LSA	C0_I0554
C0_LI_T001_0009_LSA	C0_I0555
C0_LI_T001_0009_LSA	C0_I0556
C0_LI_T001_0009_LSA	C0_I0557
C0_LI_T001_0009_LSA	C0_I0558
C0_LI_T001_0009_LSA	C0_I0559
C0_LI_T001_0009_LSA	C0_I0560
C0_LI_T001_0009_LSA	C0_I0561
C0_LI_T001_0009_LSA	C0_I0562
C0_LI_T001_0009_LSA	C0_I0563
C0_LI_T001_0009_LSA	C0_I0565
C0_LI_T001_0009_LSA	C0_I0566
C0_LI_T001_0009_LSA	C0_I0567
C0_LI_T001_0009_LSA	C0_I0568
C0_LI_T001_0009_LSA	C0_I0569
C0_LI_T001_0009_LSA	C0_I0570
C0_LI_T001_0009_LSA	C0_I0571
C0_LI_T001_0009_LSA	C0_I0572
C0_LI_T001_0009_LSA	C0_I0573
C0_LI_T001_0009_LSA	C0_I0574
C0_LI_T001_0009_LSA	C0_I0575
C0_LI_T001_0009_LSA	C0_I0576
C0_LI_T001_0009_LSA	C0_I0577
C0_LI_T001_0009_LSA	C0_I0578
C0_LI_T001_0009_LSA	C0_I0579
C0_LI_T001_0009_LSA	C0_I0580
C0_LI_T001_0009_LSA	C0_I0581
C0_LI_T001_0009_LSA	C0_I0582
C0_LI_T001_0009_LSA	C0_I0583
C0_LI_T001_0009_LSA	C0_I0584
C0_LI_T001_0009_LSA	C0_I0585
C0_LI_T001_0009_LSA	C0_I0586
C0_LI_T001_0009_LSA	C0_I0587
C0_LI_T001_0009_LSA	C0_I0588
C0_LI_T001_0009_LSA	C0_I0589
C0_LI_T001_0009_LSA	C0_I0597
C0_LI_T001_0009_LSA	C0_I0598
C0_LI_T001_0009_LSA	C0_I0599
C0_LI_T001_0009_LSA	C0_I0600
C0_LI_T001_0009_LSA	C0_I0601
C0_LI_T001_0009_LSA	C0_I0602
C0_LI_T001_0009_LSA	C0_I0603
C0_LI_T001_0009_LSA	C0_I0604
C0_LI_T001_0009_LSA	C0_I0605
C0_LI_T001_0009_LSA	C0_I0606
C0_LI_T001_0009_LSA	C0_I0607
C0_LI_T001_0009_LSA	C0_I0608
C0_LI_T001_0009_LSA	C0_I0609
C0_LI_T001_0009_LSA	C0_I0610
C0_LI_T001_0009_LSA	C0_I0611
C0_IN_T002_0002_LSA	C0_I0289
C0_IN_T002_0002_LSA	C0_I0199
C0_IN_T002_0002_LSA	C0_I0416
C0_IN_T002_0002_LSA	C0_I0046
C0_IN_T002_0002_LSA	C0_I0022
C0_IN_T002_0002_LSA	C0_I0434
C0_IN_T002_0002_LSA	C0_I0435
C0_IN_T002_0002_LSA	C0_I0174
C0_IN_T002_0002_LSA	C0_I0332
C0_IN_T002_0002_LSA	C0_I0133
C0_IN_T002_0002_LSA	C0_I0290
C0_IN_T002_0002_LSA	C0_I0092
C0_IN_T002_0002_LSA	C0_I0021
C0_IN_T002_0002_LSA	C0_I0218
C0_IN_T002_0002_LSA	C0_I0135
C0_IN_T002_0002_LSA	C0_I0143
C0_IN_T002_0002_LSA	C0_I0224
C0_IN_T002_0002_LSA	C0_I0225
C0_IN_T002_0002_LSA	C0_I0282
C0_IN_T002_0002_LSA	C0_I0354
C0_IN_T002_0002_LSA	C0_I0226
C0_IN_T002_0002_LSA	C0_I0083
C0_IN_T002_0002_LSA	C0_I0084
C0_IN_T002_0002_LSA	C0_I0283
C0_IN_T002_0002_LSA	C0_I0327
C0_IN_T002_0002_LSA	C0_I0328
C0_IN_T002_0002_LSA	C0_I0365
C0_IN_T002_0002_LSA	C0+I0365
C0_IN_T002_0002_LSA	C0_I0253
C0_IN_T002_0002_LSA	C0_I0358
C0_IN_T002_0002_LSA	C0+I0358
C0_IN_T002_0002_LSA	C0_I0359
C0_IN_T002_0002_LSA	C0_I0128
C0_IN_T002_0002_LSA	C0_I0356
C0_IN_T002_0002_LSA	C0+I0356
C0_IN_T002_0002_LSA	C0_I0357
C0_IN_T002_0002_LSA	C0_I0326
C0_IN_T002_0002_LSA	C0_I0457
C0_IN_T002_0003_LSA	C0_I0011
C0_IN_T002_0003_LSA	C0_I0162
C0_IN_T002_0003_LSA	C0_I0110
C0_IN_T002_0003_LSA	C0_I0298
C0_IN_T002_0003_LSA	C0_I0115
C0_IN_T002_0003_LSA	C0_I0017
C0_IN_T002_0003_LSA	C0_I0427
C0_IN_T002_0003_LSA	C0_I0116
C0_IN_T002_0003_LSA	C0_I0338
C0_IN_T002_0003_LSA	C0_I0339
C0_IN_T002_0003_LSA	C0_I0340
C0_IN_T002_0003_LSA	C0_I0114
C0_IN_T002_0003_LSA	C0_I0005
C0_IN_T002_0003_LSA	C0_I0006
C0_IN_T002_0003_LSA	C0_I0184
C0_IN_T002_0003_LSA	C0_I0118
C0_IN_T002_0003_LSA	C0_I0120
C0_IN_T002_0003_LSA	C0_I0119
C0_IN_T002_0003_LSA	C0_I0185
C0_IN_T002_0003_LSA	C0_I0190
C0_IN_T002_0003_LSA	C0_I0317
C0_IN_T002_0003_LSA	C0_I0318
C0_IN_T002_0003_LSA	C0_I0023
C0_IN_T002_0003_LSA	C0_I0252
C0_IN_T002_0003_LSA	C0_I0142
C0_IN_T002_0003_LSA	C0_I0366
C0_IN_T002_0003_LSA	C0_I0024
C0_IN_T002_0003_LSA	C0_I0015
C0_IN_T002_0003_LSA	C0_I0341
C0_IN_T002_0003_LSA	C0_I0342
C0_IN_T002_0003_LSA	C0_I0343
C0_IN_T002_0004_LSA	C0_I0372
C0_IN_T002_0004_LSA	C0_I0373
C0_IN_T002_0004_LSA	C0_I0449
C0_IN_T002_0004_LSA	C0_I0414
C0_IN_T002_0004_LSA	C0_I0020
C0_IN_T002_0004_LSA	C0_I0129
C0_IN_T002_0004_LSA	C0_I0131
C0_IN_T002_0004_LSA	C0_I0082
C0_IN_T002_0004_LSA	C0_I0482
C0_IN_T002_0004_LSA	C0_I0432
C0_IN_T002_0004_LSA	C0_I0288
C0_IN_T002_0004_LSA	C0_I0287
C0_IN_T002_0004_LSA	C0_I0345
C0_IN_T002_0004_LSA	C0_I0012
C0_IN_T002_0004_LSA	C0_I0431
C0_IN_T002_0004_LSA	C0_I0271
C0_IN_T002_0004_LSA	C0_I0219
C0_IN_T002_0004_LSA	C0_I0217
C0_IN_T002_0004_LSA	C0_I0286
C0_IN_T002_0004_LSA	C0_I0268
C0_IN_T002_0004_LSA	C0_I0352
C0_IN_T002_0004_LSA	C0_I0364
C0_IN_T002_0004_LSA	C0_I0109
C0_IN_T002_0004_LSA	C0_I0081
C0_IN_T002_0004_LSA	C0_I0294
C0_IN_T002_0004_LSA	C0_I0121
C0_IN_T002_0004_LSA	C0_I0284
C0_IN_T002_0004_LSA	C0_I0232
C0_IN_T002_0004_LSA	C0_I0456
C0_IN_T002_0004_LSA	C0_I0233
C0_IN_T002_0004_LSA	C0_I0291
C0_IN_T002_0004_LSA	C0_I0292
C0_IN_T002_0004_LSA	C0_I0293
C0_IN_T002_0004_LSA	C0_I0347
C0_IN_T002_0004_LSA	C0_I0348
C0_IN_T002_0004_LSA	C0_I0349
C0_IN_T002_0004_LSA	C0_I0350
C0_IN_T002_0004_LSA	C0_I0351
C0_IN_T002_0004_LSA	C0_I0182
C0_IN_T002_0004_LSA	C0_I0215
C0_IN_T002_0004_LSA	C0_I0235
C0_IN_T002_0004_LSA	C0_I0229
C0_IN_T002_0004_LSA	C0_I0134
C0_IN_T002_0004_LSA	C0_I0238
C0_IN_T002_0004_LSA	C0_I0237
C0_IN_T002_0004_LSA	C0_I0360
C0_IN_T002_0004_LSA	C0_I0230
C0_IN_T002_0004_LSA	C0_I0234
C0_IN_T002_0004_LSA	C0_I0037
C0_IN_T002_0004_LSA	C0_I0231
C0_IN_T002_0004_LSA	C0_I0236
C0_IN_T002_0004_LSA	C0_I0186
C0_IN_T002_0004_LSA	C0_I0445
C0_IN_T002_0004_LSA	C0_I0477
C0_IN_T002_0004_LSA	C0_I0478
C0_IN_T002_0004_LSA	C0_I0479
C0_IN_T002_0005_LSA	C0+I0097
C0_IN_T002_0005_LSA	C0_I0003
C0_IN_T002_0005_LSA	C0_I0053
C0_IN_T002_0005_LSA	C0_I0045
C0_IN_T002_0005_LSA	C0+I0445
C0_IN_T002_0005_LSA	C0+I0095
C0_IN_T002_0005_LSA	C0_I0346
C0_IN_T002_0005_LSA	C0_I0280
C0_IN_T002_0005_LSA	C0+I0281
C0_IN_T002_0005_LSA	C0_I0436
C0_IN_T002_0005_LSA	C0+I0436
C0_IN_T002_0005_LSA	C0_I0353
C0_IN_T002_0005_LSA	C0+I0205
C0_IN_T002_0005_LSA	C0+I0220
C0_IN_T002_0005_LSA	C0_I0063
C0_IN_T002_0005_LSA	C0+I0062
C0_IN_T002_0005_LSA	C0_I0101
C0_IN_T002_0005_LSA	C0+I0107
C0_IN_T002_0005_LSA	C0_I0035
C0_IN_T002_0005_LSA	C0_I0030
C0_IN_T002_0005_LSA	C0_I0031
C0_IN_T002_0005_LSA	C0_I0041
C0_IN_T002_0005_LSA	C0_I0043
C0_IN_T002_0005_LSA	C0_I0042
C0_IN_T002_0005_LSA	C0_I0285
C0_IN_T002_0005_LSA	C0_I0155
C0_IN_T002_0005_LSA	C0_I0027
C0_IN_T002_0005_LSA	C0_I0028
C0_IN_T002_0005_LSA	C0_I0154
C0_IN_T002_0005_LSA	C0_I0032
C0_IN_T002_0005_LSA	C0_I0034
C0_IN_T002_0005_LSA	C0_I0153
C0_IN_T002_0005_LSA	C0_I0036
C0_IN_T002_0005_LSA	C0_I0038
C0_IN_T002_0005_LSA	C0_I0039
C0_IN_T002_0005_LSA	C0_I0152
C0_IN_T002_0005_LSA	C0_I0151
C0_IN_T002_0005_LSA	C0_I0150
C0_IN_T002_0005_LSA	C0_I0380
C0_IN_T002_0005_LSA	C0_I0117
C0_IN_T002_0005_LSA	C0_I0141
C0_IN_T002_0005_LSA	C0_I0361
C0_IN_T002_0005_LSA	C0_I0243
C0_IN_T002_0005_LSA	C0_I0242
C0_IN_T002_0005_LSA	C0_I0371
C0_IN_T002_0005_LSA	C0_I0411
C0_IN_T002_0005_LSA	C0_I0412
C0_IN_T002_0005_LSA	C0_I0323
C0_IN_T002_0005_LSA	C0_I0451
C0_IN_T002_0005_LSA	C0_I0454
C0_IN_T002_0005_LSA	C0_I0455
C0_IN_T002_0005_LSA	C0_I0474
C0_IN_T002_0005_LSA	C0_I0590
C0_IN_T002_0005_LSA	C0_I0591
C0_IN_T002_0005_LSA	C0_I0592
C0_IN_T002_0005_LSA	C0_I0593
C0_IN_T002_0005_LSA	C0_I0594
C0_IN_T002_0005_LSA	C0_I0595
C0_IN_T002_0005_LSA	C0_I0452
C0_IN_T002_0005_LSA	C0_I0596
C0_IN_T002_0006_LSA	C0_I0057
C0_IN_T002_0006_LSA	C0_I0325
C0_IN_T002_0006_LSA	C0_I0324
C0_IN_T002_0006_LSA	C0_I0330
C0_IN_T002_0006_LSA	C0_I0459
C0_IN_T002_0006_LSA	C0_I0058
C0_IN_T002_0006_LSA	C0_I0112
C0_IN_T002_0006_LSA	C0_I0060
C0_IN_T002_0006_LSA	C0_I0061
C0_IN_T002_0006_LSA	C0_I0113
C0_IN_T002_0006_LSA	C0_I0158
C0_IN_T002_0006_LSA	C0_I0191
C0_IN_T002_0006_LSA	C0_I0299
C0_IN_T002_0006_LSA	C0_I0300
C0_IN_T002_0006_LSA	C0_I0161
C0_IN_T002_0006_LSA	C0_I0149
C0_IN_T002_0006_LSA	C0_I0433
C0_IN_T002_0006_LSA	C0_I0163
C0_IN_T002_0006_LSA	C0_I0016
C0_IN_T002_0006_LSA	C0_I0130
C0_IN_T002_0006_LSA	C0_I0301
C0_IN_T002_0006_LSA	C0_I0106
C0_IN_T002_0006_LSA	C0_I0189
C0_IN_T002_0006_LSA	C0_I0239
C0_IN_T002_0006_LSA	C0_I0240
C0_IN_T002_0006_LSA	C0_I0471
C0_IN_T002_0006_LSA	C0_I0472
C0_IN_T002_0006_LSA	C0_I0214
C0_IN_T002_0006_LSA	C0_I0069
C0_IN_T002_0006_LSA	C0_I0370
C0_IN_T002_0006_LSA	C0+I0369
C0_IN_T002_0006_LSA	C0_I0070
C0_IN_T002_0006_LSA	C0_I0262
C0_IN_T002_0006_LSA	C0_I0164
C0_IN_T002_0006_LSA	C0_I0362
C0_IN_T002_0006_LSA	C0_I0363
C0_IN_T002_0006_LSA	C0_I0319
C0_IN_T002_0006_LSA	C0_I0320
C0_IN_T002_0006_LSA	C0_I0194
C0_IN_T002_0006_LSA	C0_I0066
C0_IN_T002_0006_LSA	C0_I0067
C0_IN_T002_0006_LSA	C0_I0255
C0_IN_T002_0006_LSA	C0_I0377
C0_IN_T002_0006_LSA	C0_I0244
C0_IN_T002_0006_LSA	C0_I0071
C0_IN_T002_0006_LSA	C0_I0072
C0_IN_T002_0006_LSA	C0_I0303
C0_IN_T002_0006_LSA	C0_I0302
C0_IN_T002_0006_LSA	C0_I0304
C0_IN_T002_0006_LSA	C0_I0102
C0_IN_T002_0006_LSA	C0_I0103
C0_IN_T002_0006_LSA	C0_I0108
C0_IN_T002_0006_LSA	C0_I0132
C0_IN_T002_0006_LSA	C0_I0122
C0_IN_T002_0006_LSA	C0_I0065
C0_IN_T002_0006_LSA	C0_I0295
C0_IN_T002_0006_LSA	C0_I0296
C0_IN_T002_0006_LSA	C0_I0329
C0_IN_T002_0006_LSA	C0_I0428
C0_IN_T002_0006_LSA	C0_I0429
C0_IN_T002_0006_LSA	C0_I0470
C0_IN_T002_0007_LSA	C0+I0199
C0_IN_T002_0007_LSA	C0_I0248
C0_IN_T002_0007_LSA	C0_I0249
C0_IN_T002_0007_LSA	C0_I0107
C0_IN_T002_0007_LSA	C0_I0250
C0_IN_T002_0007_LSA	C0_I0251
C0_IN_T002_0007_LSA	C0_I0221
C0_IN_T002_0007_LSA	C0_I0157
C0_IN_T002_0007_LSA	C0_I0062
C0_IN_T002_0007_LSA	C0_I0159
C0_IN_T002_0007_LSA	C0_I0160
C0_IN_T002_0007_LSA	C0_I0222
C0_IN_T002_0007_LSA	C0_I0176
C0_IN_T002_0007_LSA	C0_I0179
C0_IN_T002_0007_LSA	C0_I0177
C0_IN_T002_0007_LSA	C0_I0178
C0_IN_T002_0007_LSA	C0_I0200
C0_IN_T002_0007_LSA	C0_I0263
C0_IN_T002_0007_LSA	C0_I0201
C0_IN_T002_0007_LSA	C0_I0264
C0_IN_T002_0007_LSA	C0_I0202
C0_IN_T002_0007_LSA	C0_I0265
C0_IN_T002_0007_LSA	C0_I0203
C0_IN_T002_0007_LSA	C0_I0266
C0_IN_T002_0007_LSA	C0_I0204
C0_IN_T002_0007_LSA	C0_I0267
C0_IN_T002_0008_LSA	C0_I0227
C0_IN_T002_0008_LSA	C0_I0270
C0_IN_T002_0008_LSA	C0_I0078
C0_IN_T002_0008_LSA	C0_I0077
C0_IN_T002_0008_LSA	C0_I0309
C0_IN_T002_0008_LSA	C0_I0310
C0_IN_T002_0008_LSA	C0_I0378
C0_IN_T002_0008_LSA	C0_I0312
C0_IN_T002_0008_LSA	C0_I0313
C0_IN_T002_0008_LSA	C0_I0091
C0_IN_T002_0008_LSA	C0_I0206
C0_IN_T002_0008_LSA	C0_I0207
C0_IN_T002_0008_LSA	C0_I0075
C0_IN_T002_0008_LSA	C0_I0076
C0_IN_T002_0008_LSA	C0_I0259
C0_IN_T002_0008_LSA	C0_I0079
C0_IN_T002_0008_LSA	C0_I0080
C0_IN_T002_0008_LSA	C0_I0331
C0_IN_T002_0008_LSA	C0_I0096
C0_IN_T002_0008_LSA	C0_I0260
C0_IN_T002_0008_LSA	C0_I0322
C0_IN_T002_0008_LSA	C0_I0100
C0_IN_T002_0008_LSA	C0_I0446
C0_IN_T002_0008_LSA	C0_I0447
C0_IN_T002_0008_LSA	C0_I0064
C0_IN_T002_0008_LSA	C0_I0261
C0_IN_T002_0008_LSA	C0_I0097
C0_IN_T002_0008_LSA	C0_I0098
C0_IN_T002_0008_LSA	C0_I0276
C0_IN_T002_0008_LSA	C0_I0277
C0_IN_T002_0008_LSA	C0_I0316
C0_IN_T002_0008_LSA	C0_I0367
C0_IN_T002_0008_LSA	C0_I0209
C0_IN_T002_0008_LSA	C0_I0124
C0_IN_T002_0008_LSA	C0_I0126
C0_IN_T002_0008_LSA	C0_I0125
C0_IN_T002_0008_LSA	C0_I0123
C0_IN_T002_0008_LSA	C0_I0195
C0_IN_T002_0008_LSA	C0_I0228
C0_IN_T002_0008_LSA	C0_I0314
C0_IN_T002_0008_LSA	C0_I0315
C0_IN_T002_0008_LSA	C0_I0175
C0_IN_T002_0008_LSA	C0_I0269
C0_IN_T002_0008_LSA	C0_I0147
C0_IN_T002_0008_LSA	C0_I0145
C0_IN_T002_0008_LSA	C0_I0272
C0_IN_T002_0008_LSA	C0_I0273
C0_IN_T002_0008_LSA	C0_I0305
C0_IN_T002_0008_LSA	C0_I0306
C0_IN_T002_0008_LSA	C0_I0198
C0_IN_T002_0008_LSA	C0_I0197
C0_IN_T002_0008_LSA	C0_I0274
C0_IN_T002_0008_LSA	C0_I0275
C0_IN_T002_0008_LSA	C0_I0307
C0_IN_T002_0008_LSA	C0_I0308
C0_IN_T002_0008_LSA	C0_I0013
C0_IN_T002_0008_LSA	C0_I0085
C0_IN_T002_0008_LSA	C0_I0086
C0_IN_T002_0008_LSA	C0_I0146
C0_IN_T002_0008_LSA	C0_I0088
C0_IN_T002_0008_LSA	C0_I0087
C0_IN_T002_0008_LSA	C0_I0090
C0_IN_T002_0008_LSA	C0_I0089
C0_IN_T002_0008_LSA	C0_I0321
C0_IN_T002_0009_LSA	C0_I0188
C0_IN_T002_0009_LSA	C0_I0430
C0_IN_T002_0009_LSA	C0_I0095
C0_IN_T002_0009_LSA	C0+I0094
C0_IN_T002_0009_LSA	C0_I0410
C0_IN_T002_0009_LSA	C0+I0410
C0_IN_T002_0009_LSA	C0_I0386
C0_IN_T002_0009_LSA	C0_I0402
C0_IN_T002_0009_LSA	C0_I0387
C0_IN_T002_0009_LSA	C0_I0399
C0_IN_T002_0009_LSA	C0_I0403
C0_IN_T002_0009_LSA	C0_I0404
C0_IN_T002_0009_LSA	C0_I0405
C0_IN_T002_0009_LSA	C0_I0406
C0_IN_T002_0009_LSA	C0_I0394
C0_IN_T002_0009_LSA	C0_I0398
C0_IN_T002_0009_LSA	C0_I0407
C0_IN_T002_0009_LSA	C0_I0400
C0_IN_T002_0009_LSA	C0_I0401
C0_IN_T002_0009_LSA	C0_I0389
C0_IN_T002_0009_LSA	C0_I0391
C0_IN_T002_0009_LSA	C0_I0395
C0_IN_T002_0009_LSA	C0_I0396
C0_IN_T002_0009_LSA	C0_I0397
C0_IN_T002_0009_LSA	C0_I0388
C0_IN_T002_0009_LSA	C0_I0393
C0_IN_T002_0009_LSA	C0_I0297
C0_IN_T002_0009_LSA	C0_I0369
C0_IN_T002_0009_LSA	C0_I0392
C0_IN_T002_0009_LSA	C0_I0408
C0_IN_T002_0009_LSA	C0_I0409
C0_LI_T002_0002_LSA	C0_I0247
C0_LI_T002_0002_LSA	C0_I0054
C0_LI_T002_0002_LSA	C0_I0047
C0_LI_T002_0002_LSA	C0+I0473
C0_LI_T002_0002_LSA	C0+I0047
C0_LI_T002_0002_LSA	C0_I0007
C0_LI_T002_0002_LSA	C0_I0334
C0_LI_T002_0002_LSA	C0_I0335
C0_LI_T002_0002_LSA	C0_I0336
C0_LI_T002_0002_LSA	C0_I0337
C0_LI_T002_0002_LSA	C0_I0093
C0_LI_T002_0002_LSA	C0_I0073
C0_LI_T002_0002_LSA	C0_I0074
C0_LI_T002_0002_LSA	C0_I0279
C0_LI_T002_0002_LSA	C0_I0355
C0_LI_T002_0002_LSA	C0_I0049
C0_LI_T002_0002_LSA	C0_I0048
C0_LI_T002_0002_LSA	C0_I0052
C0_LI_T002_0002_LSA	C0_I0050
C0_LI_T002_0002_LSA	C0_I0051
C0_LI_T002_0002_LSA	C0_I0448
C0_LI_T002_0002_LSA	C0+I0448
C0_LI_T002_0002_LSA	C0_I0475
C0_LI_T002_0004_LSA	C0_I0002
C0_LI_T002_0005_LSA	C0+I0096
C0_LI_T002_0005_LSA	C0_I0003
C0_LI_T002_0005_LSA	C0_I0059
C0_LI_T002_0005_LSA	C0_I0053
C0_LI_T002_0005_LSA	C0_I0045
C0_LI_T002_0005_LSA	C0+I0445
C0_LI_T002_0005_LSA	C0+I0095
C0_LI_T002_0005_LSA	C0+I0208
C0_LI_T002_0005_LSA	C0+I0220
C0_LI_T002_0005_LSA	C0_I0035
C0_LI_T002_0005_LSA	C0_I0030
C0_LI_T002_0005_LSA	C0_I0031
C0_LI_T002_0005_LSA	C0_I0043
C0_LI_T002_0005_LSA	C0_I0041
C0_LI_T002_0005_LSA	C0_I0042
C0_LI_T002_0005_LSA	C0_I0111
C0_LI_T002_0005_LSA	C0_I0156
C0_LI_T002_0005_LSA	C0_I0465
C0_LI_T002_0005_LSA	C0_I0040
C0_LI_T002_0005_LSA	C0_I0441
C0_LI_T002_0005_LSA	C0_I0452
C0_LI_T002_0005_LSA	C0_I0442
C0_LI_T002_0005_LSA	C0_I0450
C0_LI_T002_0005_LSA	C0_I0451
C0_LI_T002_0005_LSA	C0_I0460
C0_LI_T002_0005_LSA	C0_I0476
C0_LI_T002_0005_LSA	C0_I0590
C0_LI_T002_0005_LSA	C0_I0591
C0_LI_T002_0005_LSA	C0_I0592
C0_LI_T002_0005_LSA	C0_I0593
C0_LI_T002_0005_LSA	C0_I0594
C0_LI_T002_0005_LSA	C0_I0595
C0_LI_T002_0005_LSA	C0_I0596
C0_LI_T002_0010_LSA	C0_I0483
C0_LI_T002_0010_LSA	C0_I0484
C0_LI_T002_0010_LSA	C0_I0485
C0_LI_T002_0010_LSA	C0_I0486
C0_LI_T002_0010_LSA	C0_I0487
C0_LI_T002_0010_LSA	C0_I0488
C0_LI_T002_0010_LSA	C0_I0489
C0_LI_T002_0010_LSA	C0_I0490
C0_LI_T002_0010_LSA	C0_I0491
C0_LI_T002_0010_LSA	C0_I0492
C0_LI_T002_0010_LSA	C0_I0493
C0_LI_T002_0010_LSA	C0_I0494
C0_LI_T002_0010_LSA	C0_I0495
C0_LI_T002_0010_LSA	C0_I0496
C0_LI_T002_0010_LSA	C0_I0497
C0_LI_T002_0010_LSA	C0_I0498
C0_LI_T002_0010_LSA	C0_I0499
C0_LI_T002_0010_LSA	C0_I0500
C0_LI_T002_0010_LSA	C0_I0501
C0_LI_T002_0010_LSA	C0_I0502
C0_LI_T002_0010_LSA	C0_I0503
C0_LI_T002_0010_LSA	C0_I0504
C0_LI_T002_0010_LSA	C0_I0505
C0_LI_T002_0010_LSA	C0_I0506
C0_LI_T002_0010_LSA	C0_I0507
C0_LI_T002_0010_LSA	C0_I0508
C0_LI_T002_0010_LSA	C0_I0509
C0_LI_T002_0010_LSA	C0_I0510
C0_LI_T002_0010_LSA	C0_I0511
C0_LI_T002_0010_LSA	C0_I0512
C0_LI_T002_0010_LSA	C0_I0513
C0_LI_T002_0010_LSA	C0_I0514
C0_LI_T002_0010_LSA	C0_I0515
C0_LI_T002_0010_LSA	C0_I0516
C0_LI_T002_0010_LSA	C0_I0517
C0_LI_T002_0010_LSA	C0_I0518
C0_LI_T002_0010_LSA	C0_I0519
C0_LI_T002_0010_LSA	C0_I0520
C0_LI_T002_0010_LSA	C0_I0521
C0_LI_T002_0010_LSA	C0_I0522
C0_LI_T002_0010_LSA	C0_I0523
C0_LI_T002_0010_LSA	C0_I0524
C0_LI_T002_0010_LSA	C0_I0525
C0_LI_T002_0010_LSA	C0_I0526
C0_LI_T002_0010_LSA	C0_I0527
C0_LI_T002_0010_LSA	C0_I0528
C0_LI_T002_0010_LSA	C0_I0529
C0_LI_T002_0010_LSA	C0_I0530
C0_LI_T002_0010_LSA	C0_I0531
C0_LI_T002_0010_LSA	C0_I0532
C0_LI_T002_0010_LSA	C0_I0533
C0_LI_T002_0010_LSA	C0_I0534
C0_LI_T002_0010_LSA	C0_I0535
C0_LI_T002_0010_LSA	C0_I0536
C0_LI_T002_0010_LSA	C0_I0537
C0_LI_T002_0010_LSA	C0_I0538
C0_LI_T002_0010_LSA	C0_I0539
C0_LI_T002_0010_LSA	C0_I0540
C0_LI_T002_0010_LSA	C0_I0541
C0_LI_T002_0010_LSA	C0_I0542
C0_LI_T002_0010_LSA	C0_I0543
C0_LI_T002_0010_LSA	C0_I0544
C0_LI_T002_0010_LSA	C0_I0545
C0_LI_T002_0010_LSA	C0_I0546
C0_LI_T002_0010_LSA	C0_I0547
C0_LI_T002_0010_LSA	C0_I0548
C0_LI_T002_0010_LSA	C0_I0549
C0_LI_T002_0010_LSA	C0_I0550
C0_LI_T002_0010_LSA	C0_I0551
C0_LI_T002_0010_LSA	C0_I0552
C0_LI_T002_0010_LSA	C0_I0553
C0_LI_T002_0010_LSA	C0_I0554
C0_LI_T002_0010_LSA	C0_I0555
C0_LI_T002_0010_LSA	C0_I0556
C0_LI_T002_0010_LSA	C0_I0557
C0_LI_T002_0010_LSA	C0_I0558
C0_LI_T002_0010_LSA	C0_I0559
C0_LI_T002_0010_LSA	C0_I0560
C0_LI_T002_0010_LSA	C0_I0561
C0_LI_T002_0010_LSA	C0_I0562
C0_LI_T002_0010_LSA	C0_I0563
C0_LI_T002_0010_LSA	C0_I0565
C0_LI_T002_0010_LSA	C0_I0566
C0_LI_T002_0010_LSA	C0_I0567
C0_LI_T002_0010_LSA	C0_I0568
C0_LI_T002_0010_LSA	C0_I0569
C0_LI_T002_0010_LSA	C0_I0570
C0_LI_T002_0010_LSA	C0_I0571
C0_LI_T002_0010_LSA	C0_I0572
C0_LI_T002_0010_LSA	C0_I0573
C0_LI_T002_0010_LSA	C0_I0574
C0_LI_T002_0010_LSA	C0_I0575
C0_LI_T002_0010_LSA	C0_I0576
C0_LI_T002_0010_LSA	C0_I0577
C0_LI_T002_0010_LSA	C0_I0578
C0_LI_T002_0010_LSA	C0_I0579
C0_LI_T002_0010_LSA	C0_I0580
C0_LI_T002_0010_LSA	C0_I0581
C0_LI_T002_0010_LSA	C0_I0582
C0_LI_T002_0010_LSA	C0_I0583
C0_LI_T002_0010_LSA	C0_I0584
C0_LI_T002_0010_LSA	C0_I0585
C0_LI_T002_0010_LSA	C0_I0586
C0_LI_T002_0010_LSA	C0_I0587
C0_LI_T002_0010_LSA	C0_I0588
C0_LI_T002_0010_LSA	C0_I0589
C0_LI_T002_0010_LSA	C0_I0597
C0_LI_T002_0010_LSA	C0_I0598
C0_LI_T002_0010_LSA	C0_I0599
C0_LI_T002_0010_LSA	C0_I0600
C0_LI_T002_0010_LSA	C0_I0601
C0_LI_T002_0010_LSA	C0_I0602
C0_LI_T002_0010_LSA	C0_I0603
C0_LI_T002_0010_LSA	C0_I0604
C0_LI_T002_0010_LSA	C0_I0605
C0_LI_T002_0010_LSA	C0_I0606
C0_LI_T002_0010_LSA	C0_I0607
C0_LI_T002_0010_LSA	C0_I0608
C0_LI_T002_0010_LSA	C0_I0609
C0_LI_T002_0010_LSA	C0_I0610
C0_LI_T002_0010_LSA	C0_I0611
C0_IN_T003_0002_LSA	C0_I0289
C0_IN_T003_0002_LSA	C0_I0199
C0_IN_T003_0002_LSA	C0_I0416
C0_IN_T003_0002_LSA	C0_I0046
C0_IN_T003_0002_LSA	C0_I0022
C0_IN_T003_0002_LSA	C0_I0434
C0_IN_T003_0002_LSA	C0_I0435
C0_IN_T003_0002_LSA	C0_I0210
C0_IN_T003_0002_LSA	C0_I0212
C0_IN_T003_0002_LSA	C0_I0148
C0_IN_T003_0002_LSA	C0_I0140
C0_IN_T003_0002_LSA	C0_I0139
C0_IN_T003_0002_LSA	C0_I0021
C0_IN_T003_0002_LSA	C0_I0135
C0_IN_T003_0002_LSA	C0_I0143
C0_IN_T003_0002_LSA	C0_I0224
C0_IN_T003_0002_LSA	C0_I0225
C0_IN_T003_0002_LSA	C0_I0083
C0_IN_T003_0002_LSA	C0_I0084
C0_IN_T003_0002_LSA	C0_I0128
C0_IN_T003_0002_LSA	C0_I0356
C0_IN_T003_0002_LSA	C0+I0356
C0_IN_T003_0002_LSA	C0_I0357
C0_IN_T003_0002_LSA	C0_I0326
C0_IN_T003_0003_LSA	C0_I0011
C0_IN_T003_0003_LSA	C0_I0162
C0_IN_T003_0003_LSA	C0_I0115
C0_IN_T003_0003_LSA	C0_I0017
C0_IN_T003_0003_LSA	C0_I0427
C0_IN_T003_0003_LSA	C0_I0023
C0_IN_T003_0003_LSA	C0_I0252
C0_IN_T003_0003_LSA	C0_I0142
C0_IN_T003_0003_LSA	C0_I0366
C0_IN_T003_0003_LSA	C0_I0024
C0_IN_T003_0004_LSA	C0_I0372
C0_IN_T003_0004_LSA	C0_I0373
C0_IN_T003_0004_LSA	C0_I0449
C0_IN_T003_0004_LSA	C0_I0414
C0_IN_T003_0004_LSA	C0_I0020
C0_IN_T003_0004_LSA	C0_I0129
C0_IN_T003_0004_LSA	C0_I0131
C0_IN_T003_0004_LSA	C0_I0082
C0_IN_T003_0004_LSA	C0_I0482
C0_IN_T003_0004_LSA	C0_I0288
C0_IN_T003_0004_LSA	C0_I0287
C0_IN_T003_0004_LSA	C0_I0345
C0_IN_T003_0004_LSA	C0_I0012
C0_IN_T003_0004_LSA	C0_I0196
C0_IN_T003_0004_LSA	C0_I0127
C0_IN_T003_0004_LSA	C0_I0105
C0_IN_T003_0004_LSA	C0_I0104
C0_IN_T003_0004_LSA	C0_I0211
C0_IN_T003_0004_LSA	C0_I0463
C0_IN_T003_0004_LSA	C0_I0464
C0_IN_T003_0004_LSA	C0_I0468
C0_IN_T003_0004_LSA	C0_I0469
C0_IN_T003_0005_LSA	C0+I0097
C0_IN_T003_0005_LSA	C0_I0003
C0_IN_T003_0005_LSA	C0_I0053
C0_IN_T003_0005_LSA	C0_I0045
C0_IN_T003_0005_LSA	C0+I0445
C0_IN_T003_0005_LSA	C0+I0095
C0_IN_T003_0005_LSA	C0_I0346
C0_IN_T003_0005_LSA	C0+I0205
C0_IN_T003_0005_LSA	C0+I0220
C0_IN_T003_0005_LSA	C0_I0063
C0_IN_T003_0005_LSA	C0+I0062
C0_IN_T003_0005_LSA	C0_I0101
C0_IN_T003_0005_LSA	C0+I0107
C0_IN_T003_0005_LSA	C0_I0035
C0_IN_T003_0005_LSA	C0_I0030
C0_IN_T003_0005_LSA	C0_I0031
C0_IN_T003_0005_LSA	C0_I0041
C0_IN_T003_0005_LSA	C0_I0043
C0_IN_T003_0005_LSA	C0_I0042
C0_IN_T003_0005_LSA	C0_I0285
C0_IN_T003_0005_LSA	C0_I0155
C0_IN_T003_0005_LSA	C0_I0027
C0_IN_T003_0005_LSA	C0_I0028
C0_IN_T003_0005_LSA	C0_I0154
C0_IN_T003_0005_LSA	C0_I0032
C0_IN_T003_0005_LSA	C0_I0034
C0_IN_T003_0005_LSA	C0_I0153
C0_IN_T003_0005_LSA	C0_I0036
C0_IN_T003_0005_LSA	C0_I0038
C0_IN_T003_0005_LSA	C0_I0039
C0_IN_T003_0005_LSA	C0_I0152
C0_IN_T003_0005_LSA	C0_I0151
C0_IN_T003_0005_LSA	C0_I0150
C0_IN_T003_0005_LSA	C0_I0380
C0_IN_T003_0005_LSA	C0_I0141
C0_IN_T003_0005_LSA	C0_I0361
C0_IN_T003_0005_LSA	C0_I0243
C0_IN_T003_0005_LSA	C0_I0242
C0_IN_T003_0005_LSA	C0_I0371
C0_IN_T003_0005_LSA	C0_I0411
C0_IN_T003_0005_LSA	C0_I0412
C0_IN_T003_0005_LSA	C0_I0323
C0_IN_T003_0005_LSA	C0_I0451
C0_IN_T003_0005_LSA	C0_I0476
C0_IN_T003_0005_LSA	C0_I0593
C0_IN_T003_0005_LSA	C0_I0452
C0_IN_T003_0005_LSA	C0_I0596
C0_LI_T003_0002_LSA	C0_I0247
C0_LI_T003_0002_LSA	C0_I0054
C0_LI_T003_0002_LSA	C0_I0047
C0_LI_T003_0002_LSA	C0+I0473
C0_LI_T003_0002_LSA	C0+I0047
C0_LI_T003_0002_LSA	C0_I0007
C0_LI_T003_0002_LSA	C0_I0334
C0_LI_T003_0002_LSA	C0_I0335
C0_LI_T003_0002_LSA	C0_I0336
C0_LI_T003_0002_LSA	C0_I0337
C0_LI_T003_0002_LSA	C0_I0093
C0_LI_T003_0002_LSA	C0_I0073
C0_LI_T003_0002_LSA	C0_I0074
C0_LI_T003_0002_LSA	C0_I0355
C0_LI_T003_0002_LSA	C0_I0049
C0_LI_T003_0002_LSA	C0_I0048
C0_LI_T003_0002_LSA	C0_I0052
C0_LI_T003_0002_LSA	C0_I0050
C0_LI_T003_0002_LSA	C0_I0051
C0_LI_T003_0002_LSA	C0_I0448
C0_LI_T003_0002_LSA	C0+I0448
C0_LI_T003_0004_LSA	C0_I0002
C0_LI_T003_0005_LSA	C0+I0096
C0_LI_T003_0005_LSA	C0_I0003
C0_LI_T003_0005_LSA	C0_I0059
C0_LI_T003_0005_LSA	C0_I0053
C0_LI_T003_0005_LSA	C0_I0045
C0_LI_T003_0005_LSA	C0+I0445
C0_LI_T003_0005_LSA	C0+I0095
C0_LI_T003_0005_LSA	C0+I0208
C0_LI_T003_0005_LSA	C0+I0220
C0_LI_T003_0005_LSA	C0_I0035
C0_LI_T003_0005_LSA	C0_I0030
C0_LI_T003_0005_LSA	C0_I0031
C0_LI_T003_0005_LSA	C0_I0043
C0_LI_T003_0005_LSA	C0_I0041
C0_LI_T003_0005_LSA	C0_I0042
C0_LI_T003_0005_LSA	C0_I0111
C0_LI_T003_0005_LSA	C0_I0156
C0_LI_T003_0005_LSA	C0_I0465
C0_LI_T003_0005_LSA	C0_I0040
C0_LI_T003_0005_LSA	C0_I0441
C0_LI_T003_0005_LSA	C0_I0452
C0_LI_T003_0005_LSA	C0_I0453
C0_LI_T003_0005_LSA	C0_I0442
C0_LI_T003_0005_LSA	C0_I0450
C0_LI_T003_0005_LSA	C0_I0451
C0_LI_T003_0005_LSA	C0_I0593
C0_LI_T003_0005_LSA	C0_I0596
C0_LI_T003_0010_LSA	C0_I0483
C0_LI_T003_0010_LSA	C0_I0484
C0_LI_T003_0010_LSA	C0_I0485
C0_LI_T003_0010_LSA	C0_I0486
C0_LI_T003_0010_LSA	C0_I0487
C0_LI_T003_0010_LSA	C0_I0488
C0_LI_T003_0010_LSA	C0_I0489
C0_LI_T003_0010_LSA	C0_I0490
C0_LI_T003_0010_LSA	C0_I0491
C0_LI_T003_0010_LSA	C0_I0492
C0_LI_T003_0010_LSA	C0_I0493
C0_LI_T003_0010_LSA	C0_I0494
C0_LI_T003_0010_LSA	C0_I0495
C0_LI_T003_0010_LSA	C0_I0496
C0_LI_T003_0010_LSA	C0_I0497
C0_LI_T003_0010_LSA	C0_I0498
C0_LI_T003_0010_LSA	C0_I0499
C0_LI_T003_0010_LSA	C0_I0500
C0_LI_T003_0010_LSA	C0_I0501
C0_LI_T003_0010_LSA	C0_I0502
C0_LI_T003_0010_LSA	C0_I0503
C0_LI_T003_0010_LSA	C0_I0504
C0_LI_T003_0010_LSA	C0_I0505
C0_LI_T003_0010_LSA	C0_I0506
C0_LI_T003_0010_LSA	C0_I0507
C0_LI_T003_0010_LSA	C0_I0508
C0_LI_T003_0010_LSA	C0_I0509
C0_LI_T003_0010_LSA	C0_I0510
C0_LI_T003_0010_LSA	C0_I0511
C0_LI_T003_0010_LSA	C0_I0512
C0_LI_T003_0010_LSA	C0_I0513
C0_LI_T003_0010_LSA	C0_I0514
C0_LI_T003_0010_LSA	C0_I0515
C0_LI_T003_0010_LSA	C0_I0516
C0_LI_T003_0010_LSA	C0_I0517
C0_LI_T003_0010_LSA	C0_I0518
C0_LI_T003_0010_LSA	C0_I0519
C0_LI_T003_0010_LSA	C0_I0520
C0_LI_T003_0010_LSA	C0_I0521
C0_LI_T003_0010_LSA	C0_I0522
C0_LI_T003_0010_LSA	C0_I0523
C0_LI_T003_0010_LSA	C0_I0524
C0_LI_T003_0010_LSA	C0_I0525
C0_LI_T003_0010_LSA	C0_I0526
C0_LI_T003_0010_LSA	C0_I0527
C0_LI_T003_0010_LSA	C0_I0528
C0_LI_T003_0010_LSA	C0_I0529
C0_LI_T003_0010_LSA	C0_I0530
C0_LI_T003_0010_LSA	C0_I0531
C0_LI_T003_0010_LSA	C0_I0532
C0_LI_T003_0010_LSA	C0_I0533
C0_LI_T003_0010_LSA	C0_I0534
C0_LI_T003_0010_LSA	C0_I0535
C0_LI_T003_0010_LSA	C0_I0536
C0_LI_T003_0010_LSA	C0_I0537
C0_LI_T003_0010_LSA	C0_I0538
C0_LI_T003_0010_LSA	C0_I0539
C0_LI_T003_0010_LSA	C0_I0540
C0_LI_T003_0010_LSA	C0_I0541
C0_LI_T003_0010_LSA	C0_I0542
C0_LI_T003_0010_LSA	C0_I0543
C0_LI_T003_0010_LSA	C0_I0544
C0_LI_T003_0010_LSA	C0_I0545
C0_LI_T003_0010_LSA	C0_I0546
C0_LI_T003_0010_LSA	C0_I0547
C0_LI_T003_0010_LSA	C0_I0548
C0_LI_T003_0010_LSA	C0_I0549
C0_LI_T003_0010_LSA	C0_I0550
C0_LI_T003_0010_LSA	C0_I0551
C0_LI_T003_0010_LSA	C0_I0552
C0_LI_T003_0010_LSA	C0_I0553
C0_LI_T003_0010_LSA	C0_I0554
C0_LI_T003_0010_LSA	C0_I0555
C0_LI_T003_0010_LSA	C0_I0556
C0_LI_T003_0010_LSA	C0_I0557
C0_LI_T003_0010_LSA	C0_I0558
C0_LI_T003_0010_LSA	C0_I0559
C0_LI_T003_0010_LSA	C0_I0560
C0_LI_T003_0010_LSA	C0_I0561
C0_LI_T003_0010_LSA	C0_I0562
C0_LI_T003_0010_LSA	C0_I0563
C0_LI_T003_0010_LSA	C0_I0565
C0_LI_T003_0010_LSA	C0_I0566
C0_LI_T003_0010_LSA	C0_I0567
C0_LI_T003_0010_LSA	C0_I0568
C0_LI_T003_0010_LSA	C0_I0569
C0_LI_T003_0010_LSA	C0_I0570
C0_LI_T003_0010_LSA	C0_I0571
C0_LI_T003_0010_LSA	C0_I0572
C0_LI_T003_0010_LSA	C0_I0573
C0_LI_T003_0010_LSA	C0_I0574
C0_LI_T003_0010_LSA	C0_I0575
C0_LI_T003_0010_LSA	C0_I0576
C0_LI_T003_0010_LSA	C0_I0577
C0_LI_T003_0010_LSA	C0_I0578
C0_LI_T003_0010_LSA	C0_I0579
C0_LI_T003_0010_LSA	C0_I0580
C0_LI_T003_0010_LSA	C0_I0581
C0_LI_T003_0010_LSA	C0_I0582
C0_LI_T003_0010_LSA	C0_I0583
C0_LI_T003_0010_LSA	C0_I0584
C0_LI_T003_0010_LSA	C0_I0585
C0_LI_T003_0010_LSA	C0_I0586
C0_LI_T003_0010_LSA	C0_I0587
C0_LI_T003_0010_LSA	C0_I0588
C0_LI_T003_0010_LSA	C0_I0589
C0_LI_T003_0010_LSA	C0_I0597
C0_LI_T003_0010_LSA	C0_I0598
C0_LI_T003_0010_LSA	C0_I0599
C0_LI_T003_0010_LSA	C0_I0600
C0_LI_T003_0010_LSA	C0_I0601
C0_LI_T003_0010_LSA	C0_I0602
C0_LI_T003_0010_LSA	C0_I0603
C0_LI_T003_0010_LSA	C0_I0604
C0_LI_T003_0010_LSA	C0_I0605
C0_LI_T003_0010_LSA	C0_I0606
C0_LI_T003_0010_LSA	C0_I0607
C0_LI_T003_0010_LSA	C0_I0608
C0_LI_T003_0010_LSA	C0_I0609
C0_LI_T003_0010_LSA	C0_I0610
C0_LI_T003_0010_LSA	C0_I0611
C0_IN_T006_0002_LSA	C0_I0183
C0_IN_T006_0002_LSA	C0_I0186
C0_IN_T006_0002_LSA	C0_I0187
C0_IN_T006_0002_LSA	C0_I0193
C0_IN_T006_0002_LSA	C0_I0289
C0_IN_T006_0002_LSA	C0_I0199
C0_IN_T006_0002_LSA	C0_I0416
C0_IN_T006_0002_LSA	C0_I0046
C0_IN_T006_0002_LSA	C0_I0022
C0_IN_T006_0002_LSA	C0_I0434
C0_IN_T006_0002_LSA	C0_I0435
C0_IN_T006_0002_LSA	C0_I0174
C0_IN_T006_0002_LSA	C0_I0332
C0_IN_T006_0002_LSA	C0_I0133
C0_IN_T006_0002_LSA	C0_I0290
C0_IN_T006_0002_LSA	C0_I0092
C0_IN_T006_0002_LSA	C0_I0384
C0_IN_T006_0002_LSA	C0_I0241
C0_IN_T006_0002_LSA	C0_I0167
C0_IN_T006_0002_LSA	C0_I0169
C0_IN_T006_0002_LSA	C0_I0170
C0_IN_T006_0002_LSA	C0_I0044
C0_IN_T006_0002_LSA	C0_I0173
C0_IN_T006_0002_LSA	C0_I0171
C0_IN_T006_0002_LSA	C0_I0172
C0_IN_T006_0002_LSA	C0_I0210
C0_IN_T006_0002_LSA	C0_I0212
C0_IN_T006_0002_LSA	C0_I0148
C0_IN_T006_0002_LSA	C0_I0140
C0_IN_T006_0002_LSA	C0_I0139
C0_IN_T006_0002_LSA	C0_I0021
C0_IN_T006_0002_LSA	C0_I0383
C0_IN_T006_0002_LSA	C0_I0385
C0_IN_T006_0002_LSA	C0_I0218
C0_IN_T006_0002_LSA	C0_I0135
C0_IN_T006_0002_LSA	C0_I0143
C0_IN_T006_0002_LSA	C0_I0224
C0_IN_T006_0002_LSA	C0_I0225
C0_IN_T006_0002_LSA	C0_I0282
C0_IN_T006_0002_LSA	C0_I0354
C0_IN_T006_0002_LSA	C0_I0226
C0_IN_T006_0002_LSA	C0_I0083
C0_IN_T006_0002_LSA	C0_I0084
C0_IN_T006_0002_LSA	C0_I0283
C0_IN_T006_0002_LSA	C0_I0327
C0_IN_T006_0002_LSA	C0_I0328
C0_IN_T006_0002_LSA	C0_I0365
C0_IN_T006_0002_LSA	C0_I0253
C0_IN_T006_0002_LSA	C0_I0358
C0_IN_T006_0002_LSA	C0_I0359
C0_IN_T006_0002_LSA	C0_I0128
C0_IN_T006_0002_LSA	C0_I0356
C0_IN_T006_0002_LSA	C0_I0357
C0_IN_T006_0002_LSA	C0_I0326
C0_IN_T006_0002_LSA	C0_I0457
C0_IN_T006_0003_LSA	C0_I0011
C0_IN_T006_0003_LSA	C0_I0166
C0_IN_T006_0003_LSA	C0_I0162
C0_IN_T006_0003_LSA	C0_I0110
C0_IN_T006_0003_LSA	C0_I0298
C0_IN_T006_0003_LSA	C0_I0115
C0_IN_T006_0003_LSA	C0_I0017
C0_IN_T006_0003_LSA	C0_I0427
C0_IN_T006_0003_LSA	C0_I0116
C0_IN_T006_0003_LSA	C0_I0338
C0_IN_T006_0003_LSA	C0_I0339
C0_IN_T006_0003_LSA	C0_I0340
C0_IN_T006_0003_LSA	C0_I0114
C0_IN_T006_0003_LSA	C0_I0005
C0_IN_T006_0003_LSA	C0_I0006
C0_IN_T006_0003_LSA	C0_I0184
C0_IN_T006_0003_LSA	C0_I0118
C0_IN_T006_0003_LSA	C0_I0120
C0_IN_T006_0003_LSA	C0_I0119
C0_IN_T006_0003_LSA	C0_I0185
C0_IN_T006_0003_LSA	C0_I0190
C0_IN_T006_0003_LSA	C0_I0317
C0_IN_T006_0003_LSA	C0_I0318
C0_IN_T006_0003_LSA	C0_I0023
C0_IN_T006_0003_LSA	C0_I0252
C0_IN_T006_0003_LSA	C0_I0142
C0_IN_T006_0003_LSA	C0_I0366
C0_IN_T006_0003_LSA	C0_I0024
C0_IN_T006_0003_LSA	C0_I0381
C0_IN_T006_0003_LSA	C0_I0008
C0_IN_T006_0003_LSA	C0_I0025
C0_IN_T006_0003_LSA	C0_I0014
C0_IN_T006_0003_LSA	C0_I0015
C0_IN_T006_0003_LSA	C0_I0341
C0_IN_T006_0003_LSA	C0_I0342
C0_IN_T006_0003_LSA	C0_I0343
C0_IN_T006_0004_LSA	C0_I0372
C0_IN_T006_0004_LSA	C0_I0373
C0_IN_T006_0004_LSA	C0_I0449
C0_IN_T006_0004_LSA	C0_I0414
C0_IN_T006_0004_LSA	C0_I0417
C0_IN_T006_0004_LSA	C0_I0418
C0_IN_T006_0004_LSA	C0_I0419
C0_IN_T006_0004_LSA	C0_I0420
C0_IN_T006_0004_LSA	C0_I0421
C0_IN_T006_0004_LSA	C0_I0422
C0_IN_T006_0004_LSA	C0_I0423
C0_IN_T006_0004_LSA	C0_I0424
C0_IN_T006_0004_LSA	C0_I0425
C0_IN_T006_0004_LSA	C0_I0020
C0_IN_T006_0004_LSA	C0_I0129
C0_IN_T006_0004_LSA	C0_I0131
C0_IN_T006_0004_LSA	C0_I0082
C0_IN_T006_0004_LSA	C0_I0482
C0_IN_T006_0004_LSA	C0_I0432
C0_IN_T006_0004_LSA	C0_I0415
C0_IN_T006_0004_LSA	C0_I0382
C0_IN_T006_0004_LSA	C0_I0288
C0_IN_T006_0004_LSA	C0_I0287
C0_IN_T006_0004_LSA	C0_I0345
C0_IN_T006_0004_LSA	C0_I0012
C0_IN_T006_0004_LSA	C0_I0431
C0_IN_T006_0004_LSA	C0_I0271
C0_IN_T006_0004_LSA	C0_I0196
C0_IN_T006_0004_LSA	C0_I0127
C0_IN_T006_0004_LSA	C0_I0105
C0_IN_T006_0004_LSA	C0_I0104
C0_IN_T006_0004_LSA	C0_I0219
C0_IN_T006_0004_LSA	C0_I0217
C0_IN_T006_0004_LSA	C0_I0286
C0_IN_T006_0004_LSA	C0_I0268
C0_IN_T006_0004_LSA	C0_I0352
C0_IN_T006_0004_LSA	C0_I0364
C0_IN_T006_0004_LSA	C0_I0211
C0_IN_T006_0004_LSA	C0_I0216
C0_IN_T006_0004_LSA	C0_I0213
C0_IN_T006_0004_LSA	C0_I0109
C0_IN_T006_0004_LSA	C0_I0081
C0_IN_T006_0004_LSA	C0_I0294
C0_IN_T006_0004_LSA	C0_I0121
C0_IN_T006_0004_LSA	C0_I0284
C0_IN_T006_0004_LSA	C0_I0232
C0_IN_T006_0004_LSA	C0_I0456
C0_IN_T006_0004_LSA	C0_I0233
C0_IN_T006_0004_LSA	C0_I0291
C0_IN_T006_0004_LSA	C0_I0292
C0_IN_T006_0004_LSA	C0_I0293
C0_IN_T006_0004_LSA	C0_I0347
C0_IN_T006_0004_LSA	C0_I0348
C0_IN_T006_0004_LSA	C0_I0349
C0_IN_T006_0004_LSA	C0_I0350
C0_IN_T006_0004_LSA	C0_I0351
C0_IN_T006_0004_LSA	C0_I0182
C0_IN_T006_0004_LSA	C0_I0215
C0_IN_T006_0004_LSA	C0_I0235
C0_IN_T006_0004_LSA	C0_I0229
C0_IN_T006_0004_LSA	C0_I0134
C0_IN_T006_0004_LSA	C0_I0238
C0_IN_T006_0004_LSA	C0_I0237
C0_IN_T006_0004_LSA	C0_I0360
C0_IN_T006_0004_LSA	C0_I0230
C0_IN_T006_0004_LSA	C0_I0234
C0_IN_T006_0004_LSA	C0_I0037
C0_IN_T006_0004_LSA	C0_I0231
C0_IN_T006_0004_LSA	C0_I0236
C0_IN_T006_0004_LSA	C0_I0426
C0_IN_T006_0004_LSA	C0_I0444
C0_IN_T006_0004_LSA	C0_I0445
C0_IN_T006_0004_LSA	C0_I0461
C0_IN_T006_0004_LSA	C0_I0462
C0_IN_T006_0004_LSA	C0_I0466
C0_IN_T006_0004_LSA	C0_I0467
C0_IN_T006_0004_LSA	C0_I0463
C0_IN_T006_0004_LSA	C0_I0464
C0_IN_T006_0004_LSA	C0_I0468
C0_IN_T006_0004_LSA	C0_I0469
C0_IN_T006_0004_LSA	C0_I0477
C0_IN_T006_0004_LSA	C0_I0478
C0_IN_T006_0004_LSA	C0_I0479
C0_IN_T006_0004_LSA	C0_I0480
C0_IN_T006_0004_LSA	C0_I0481
C0_IN_T006_0005_LSA	C0+I0097
C0_IN_T006_0005_LSA	C0_I0003
C0_IN_T006_0005_LSA	C0_I0053
C0_IN_T006_0005_LSA	C0_I0045
C0_IN_T006_0005_LSA	C0+I0445
C0_IN_T006_0005_LSA	C0+I0095
C0_IN_T006_0005_LSA	C0_I0346
C0_IN_T006_0005_LSA	C0_I0280
C0_IN_T006_0005_LSA	C0+I0281
C0_IN_T006_0005_LSA	C0_I0436
C0_IN_T006_0005_LSA	C0+I0436
C0_IN_T006_0005_LSA	C0_I0353
C0_IN_T006_0005_LSA	C0+I0205
C0_IN_T006_0005_LSA	C0+I0220
C0_IN_T006_0005_LSA	C0_I0063
C0_IN_T006_0005_LSA	C0+I0062
C0_IN_T006_0005_LSA	C0_I0101
C0_IN_T006_0005_LSA	C0+I0107
C0_IN_T006_0005_LSA	C0_I0035
C0_IN_T006_0005_LSA	C0_I0030
C0_IN_T006_0005_LSA	C0_I0031
C0_IN_T006_0005_LSA	C0_I0041
C0_IN_T006_0005_LSA	C0_I0043
C0_IN_T006_0005_LSA	C0_I0042
C0_IN_T006_0005_LSA	C0_I0285
C0_IN_T006_0005_LSA	C0_I0155
C0_IN_T006_0005_LSA	C0_I0027
C0_IN_T006_0005_LSA	C0_I0028
C0_IN_T006_0005_LSA	C0_I0154
C0_IN_T006_0005_LSA	C0_I0032
C0_IN_T006_0005_LSA	C0_I0034
C0_IN_T006_0005_LSA	C0_I0153
C0_IN_T006_0005_LSA	C0_I0036
C0_IN_T006_0005_LSA	C0_I0038
C0_IN_T006_0005_LSA	C0_I0039
C0_IN_T006_0005_LSA	C0_I0152
C0_IN_T006_0005_LSA	C0_I0151
C0_IN_T006_0005_LSA	C0_I0150
C0_IN_T006_0005_LSA	C0_I0380
C0_IN_T006_0005_LSA	C0_I0117
C0_IN_T006_0005_LSA	C0_I0141
C0_IN_T006_0005_LSA	C0_I0361
C0_IN_T006_0005_LSA	C0_I0243
C0_IN_T006_0005_LSA	C0_I0242
C0_IN_T006_0005_LSA	C0_I0371
C0_IN_T006_0005_LSA	C0_I0411
C0_IN_T006_0005_LSA	C0_I0412
C0_IN_T006_0005_LSA	C0_I0323
C0_IN_T006_0005_LSA	C0_I0460
C0_IN_T006_0005_LSA	C0_I0451
C0_IN_T006_0005_LSA	C0_I0437
C0_IN_T006_0005_LSA	C0_I0439
C0_IN_T006_0005_LSA	C0_I0440
C0_IN_T006_0005_LSA	C0_I0438
C0_IN_T006_0005_LSA	C0_I0454
C0_IN_T006_0005_LSA	C0_I0455
C0_IN_T006_0005_LSA	C0_I0474
C0_IN_T006_0005_LSA	C0_I0476
C0_IN_T006_0005_LSA	C0_I0590
C0_IN_T006_0005_LSA	C0_I0591
C0_IN_T006_0005_LSA	C0_I0592
C0_IN_T006_0005_LSA	C0_I0593
C0_IN_T006_0005_LSA	C0_I0594
C0_IN_T006_0005_LSA	C0_I0595
C0_IN_T006_0005_LSA	C0_I0452
C0_IN_T006_0005_LSA	C0_I0596
C0_IN_T006_0006_LSA	C0_I0057
C0_IN_T006_0006_LSA	C0_I0325
C0_IN_T006_0006_LSA	C0_I0324
C0_IN_T006_0006_LSA	C0_I0330
C0_IN_T006_0006_LSA	C0_I0459
C0_IN_T006_0006_LSA	C0_I0058
C0_IN_T006_0006_LSA	C0_I0112
C0_IN_T006_0006_LSA	C0_I0060
C0_IN_T006_0006_LSA	C0_I0061
C0_IN_T006_0006_LSA	C0_I0113
C0_IN_T006_0006_LSA	C0_I0056
C0_IN_T006_0006_LSA	C0_I0094
C0_IN_T006_0006_LSA	C0_I0158
C0_IN_T006_0006_LSA	C0_I0191
C0_IN_T006_0006_LSA	C0_I0299
C0_IN_T006_0006_LSA	C0_I0300
C0_IN_T006_0006_LSA	C0_I0136
C0_IN_T006_0006_LSA	C0_I0161
C0_IN_T006_0006_LSA	C0_I0149
C0_IN_T006_0006_LSA	C0_I0433
C0_IN_T006_0006_LSA	C0_I0163
C0_IN_T006_0006_LSA	C0_I0214
C0_IN_T006_0006_LSA	C0_I0016
C0_IN_T006_0006_LSA	C0_I0130
C0_IN_T006_0006_LSA	C0_I0301
C0_IN_T006_0006_LSA	C0_I0106
C0_IN_T006_0006_LSA	C0_I0189
C0_IN_T006_0006_LSA	C0_I0239
C0_IN_T006_0006_LSA	C0_I0240
C0_IN_T006_0006_LSA	C0_I0471
C0_IN_T006_0006_LSA	C0_I0472
C0_IN_T006_0006_LSA	C0_I0069
C0_IN_T006_0006_LSA	C0_I0370
C0_IN_T006_0006_LSA	C0+I0369
C0_IN_T006_0006_LSA	C0_I0070
C0_IN_T006_0006_LSA	C0_I0262
C0_IN_T006_0006_LSA	C0_I0164
C0_IN_T006_0006_LSA	C0_I0362
C0_IN_T006_0006_LSA	C0_I0363
C0_IN_T006_0006_LSA	C0_I0319
C0_IN_T006_0006_LSA	C0_I0320
C0_IN_T006_0006_LSA	C0_I0194
C0_IN_T006_0006_LSA	C0_I0066
C0_IN_T006_0006_LSA	C0_I0067
C0_IN_T006_0006_LSA	C0_I0255
C0_IN_T006_0006_LSA	C0_I0377
C0_IN_T006_0006_LSA	C0_I0244
C0_IN_T006_0006_LSA	C0_I0071
C0_IN_T006_0006_LSA	C0_I0072
C0_IN_T006_0006_LSA	C0_I0303
C0_IN_T006_0006_LSA	C0_I0302
C0_IN_T006_0006_LSA	C0_I0304
C0_IN_T006_0006_LSA	C0_I0102
C0_IN_T006_0006_LSA	C0_I0103
C0_IN_T006_0006_LSA	C0_I0108
C0_IN_T006_0006_LSA	C0_I0132
C0_IN_T006_0006_LSA	C0_I0122
C0_IN_T006_0006_LSA	C0_I0065
C0_IN_T006_0006_LSA	C0_I0295
C0_IN_T006_0006_LSA	C0_I0296
C0_IN_T006_0006_LSA	C0_I0329
C0_IN_T006_0006_LSA	C0_I0428
C0_IN_T006_0006_LSA	C0_I0429
C0_IN_T006_0006_LSA	C0_I0256
C0_IN_T006_0006_LSA	C0_I0374
C0_IN_T006_0006_LSA	C0_I0257
C0_IN_T006_0006_LSA	C0_I0375
C0_IN_T006_0006_LSA	C0_I0258
C0_IN_T006_0006_LSA	C0_I0379
C0_IN_T006_0006_LSA	C0_I0165
C0_IN_T006_0006_LSA	C0_I0376
C0_IN_T006_0006_LSA	C0_I0470
C0_IN_T006_0007_LSA	C0+I0199
C0_IN_T006_0007_LSA	C0_I0248
C0_IN_T006_0007_LSA	C0_I0249
C0_IN_T006_0007_LSA	C0_I0107
C0_IN_T006_0007_LSA	C0_I0250
C0_IN_T006_0007_LSA	C0_I0251
C0_IN_T006_0007_LSA	C0_I0221
C0_IN_T006_0007_LSA	C0_I0157
C0_IN_T006_0007_LSA	C0_I0062
C0_IN_T006_0007_LSA	C0_I0159
C0_IN_T006_0007_LSA	C0_I0160
C0_IN_T006_0007_LSA	C0_I0222
C0_IN_T006_0007_LSA	C0_I0176
C0_IN_T006_0007_LSA	C0_I0179
C0_IN_T006_0007_LSA	C0_I0177
C0_IN_T006_0007_LSA	C0_I0178
C0_IN_T006_0007_LSA	C0_I0200
C0_IN_T006_0007_LSA	C0_I0263
C0_IN_T006_0007_LSA	C0_I0201
C0_IN_T006_0007_LSA	C0_I0264
C0_IN_T006_0007_LSA	C0_I0202
C0_IN_T006_0007_LSA	C0_I0265
C0_IN_T006_0007_LSA	C0_I0203
C0_IN_T006_0007_LSA	C0_I0266
C0_IN_T006_0007_LSA	C0_I0204
C0_IN_T006_0007_LSA	C0_I0267
C0_IN_T006_0008_LSA	C0_I0227
C0_IN_T006_0008_LSA	C0_I0270
C0_IN_T006_0008_LSA	C0_I0078
C0_IN_T006_0008_LSA	C0_I0077
C0_IN_T006_0008_LSA	C0_I0309
C0_IN_T006_0008_LSA	C0_I0310
C0_IN_T006_0008_LSA	C0_I0378
C0_IN_T006_0008_LSA	C0_I0312
C0_IN_T006_0008_LSA	C0_I0313
C0_IN_T006_0008_LSA	C0_I0091
C0_IN_T006_0008_LSA	C0_I0206
C0_IN_T006_0008_LSA	C0_I0207
C0_IN_T006_0008_LSA	C0_I0075
C0_IN_T006_0008_LSA	C0_I0076
C0_IN_T006_0008_LSA	C0_I0259
C0_IN_T006_0008_LSA	C0_I0079
C0_IN_T006_0008_LSA	C0_I0080
C0_IN_T006_0008_LSA	C0_I0331
C0_IN_T006_0008_LSA	C0_I0096
C0_IN_T006_0008_LSA	C0_I0260
C0_IN_T006_0008_LSA	C0_I0322
C0_IN_T006_0008_LSA	C0_I0100
C0_IN_T006_0008_LSA	C0_I0446
C0_IN_T006_0008_LSA	C0_I0447
C0_IN_T006_0008_LSA	C0_I0064
C0_IN_T006_0008_LSA	C0_I0261
C0_IN_T006_0008_LSA	C0_I0097
C0_IN_T006_0008_LSA	C0_I0098
C0_IN_T006_0008_LSA	C0_I0276
C0_IN_T006_0008_LSA	C0_I0277
C0_IN_T006_0008_LSA	C0_I0316
C0_IN_T006_0008_LSA	C0_I0367
C0_IN_T006_0008_LSA	C0_I0209
C0_IN_T006_0008_LSA	C0_I0124
C0_IN_T006_0008_LSA	C0_I0126
C0_IN_T006_0008_LSA	C0_I0125
C0_IN_T006_0008_LSA	C0_I0123
C0_IN_T006_0008_LSA	C0_I0195
C0_IN_T006_0008_LSA	C0_I0228
C0_IN_T006_0008_LSA	C0_I0314
C0_IN_T006_0008_LSA	C0_I0315
C0_IN_T006_0008_LSA	C0_I0175
C0_IN_T006_0008_LSA	C0_I0269
C0_IN_T006_0008_LSA	C0_I0147
C0_IN_T006_0008_LSA	C0_I0145
C0_IN_T006_0008_LSA	C0_I0272
C0_IN_T006_0008_LSA	C0_I0273
C0_IN_T006_0008_LSA	C0_I0305
C0_IN_T006_0008_LSA	C0_I0306
C0_IN_T006_0008_LSA	C0_I0198
C0_IN_T006_0008_LSA	C0_I0197
C0_IN_T006_0008_LSA	C0_I0274
C0_IN_T006_0008_LSA	C0_I0275
C0_IN_T006_0008_LSA	C0_I0307
C0_IN_T006_0008_LSA	C0_I0308
C0_IN_T006_0008_LSA	C0_I0013
C0_IN_T006_0008_LSA	C0_I0085
C0_IN_T006_0008_LSA	C0_I0086
C0_IN_T006_0008_LSA	C0_I0146
C0_IN_T006_0008_LSA	C0_I0088
C0_IN_T006_0008_LSA	C0_I0087
C0_IN_T006_0008_LSA	C0_I0090
C0_IN_T006_0008_LSA	C0_I0089
C0_IN_T006_0008_LSA	C0_I0321
C0_IN_T006_0009_LSA	C0_I0188
C0_IN_T006_0009_LSA	C0_I0430
C0_IN_T006_0009_LSA	C0_I0095
C0_IN_T006_0009_LSA	C0+I0094
C0_IN_T006_0009_LSA	C0_I0410
C0_IN_T006_0009_LSA	C0+I0410
C0_IN_T006_0009_LSA	C0_I0386
C0_IN_T006_0009_LSA	C0_I0402
C0_IN_T006_0009_LSA	C0_I0387
C0_IN_T006_0009_LSA	C0_I0399
C0_IN_T006_0009_LSA	C0_I0403
C0_IN_T006_0009_LSA	C0_I0404
C0_IN_T006_0009_LSA	C0_I0405
C0_IN_T006_0009_LSA	C0_I0406
C0_IN_T006_0009_LSA	C0_I0394
C0_IN_T006_0009_LSA	C0_I0398
C0_IN_T006_0009_LSA	C0_I0407
C0_IN_T006_0009_LSA	C0_I0400
C0_IN_T006_0009_LSA	C0_I0401
C0_IN_T006_0009_LSA	C0_I0389
C0_IN_T006_0009_LSA	C0_I0391
C0_IN_T006_0009_LSA	C0_I0395
C0_IN_T006_0009_LSA	C0_I0396
C0_IN_T006_0009_LSA	C0_I0397
C0_IN_T006_0009_LSA	C0_I0388
C0_IN_T006_0009_LSA	C0_I0393
C0_IN_T006_0009_LSA	C0_I0297
C0_IN_T006_0009_LSA	C0_I0369
C0_IN_T006_0009_LSA	C0_I0392
C0_IN_T006_0009_LSA	C0_I0408
C0_IN_T006_0009_LSA	C0_I0409
C0_LI_T006_0010_LSA	C0_I0483
C0_LI_T006_0010_LSA	C0_I0484
C0_LI_T006_0010_LSA	C0_I0485
C0_LI_T006_0010_LSA	C0_I0486
C0_LI_T006_0010_LSA	C0_I0487
C0_LI_T006_0010_LSA	C0_I0488
C0_LI_T006_0010_LSA	C0_I0489
C0_LI_T006_0010_LSA	C0_I0490
C0_LI_T006_0010_LSA	C0_I0491
C0_LI_T006_0010_LSA	C0_I0492
C0_LI_T006_0010_LSA	C0_I0493
C0_LI_T006_0010_LSA	C0_I0494
C0_LI_T006_0010_LSA	C0_I0495
C0_LI_T006_0010_LSA	C0_I0496
C0_LI_T006_0010_LSA	C0_I0497
C0_LI_T006_0010_LSA	C0_I0498
C0_LI_T006_0010_LSA	C0_I0499
C0_LI_T006_0010_LSA	C0_I0500
C0_LI_T006_0010_LSA	C0_I0501
C0_LI_T006_0010_LSA	C0_I0502
C0_LI_T006_0010_LSA	C0_I0503
C0_LI_T006_0010_LSA	C0_I0504
C0_LI_T006_0010_LSA	C0_I0505
C0_LI_T006_0010_LSA	C0_I0506
C0_LI_T006_0010_LSA	C0_I0507
C0_LI_T006_0010_LSA	C0_I0508
C0_LI_T006_0010_LSA	C0_I0509
C0_LI_T006_0010_LSA	C0_I0510
C0_LI_T006_0010_LSA	C0_I0511
C0_LI_T006_0010_LSA	C0_I0512
C0_LI_T006_0010_LSA	C0_I0513
C0_LI_T006_0010_LSA	C0_I0514
C0_LI_T006_0010_LSA	C0_I0515
C0_LI_T006_0010_LSA	C0_I0516
C0_LI_T006_0010_LSA	C0_I0517
C0_LI_T006_0010_LSA	C0_I0518
C0_LI_T006_0010_LSA	C0_I0519
C0_LI_T006_0010_LSA	C0_I0520
C0_LI_T006_0010_LSA	C0_I0521
C0_LI_T006_0010_LSA	C0_I0522
C0_LI_T006_0010_LSA	C0_I0523
C0_LI_T006_0010_LSA	C0_I0524
C0_LI_T006_0010_LSA	C0_I0525
C0_LI_T006_0010_LSA	C0_I0526
C0_LI_T006_0010_LSA	C0_I0527
C0_LI_T006_0010_LSA	C0_I0528
C0_LI_T006_0010_LSA	C0_I0529
C0_LI_T006_0010_LSA	C0_I0530
C0_LI_T006_0010_LSA	C0_I0531
C0_LI_T006_0010_LSA	C0_I0532
C0_LI_T006_0010_LSA	C0_I0533
C0_LI_T006_0010_LSA	C0_I0534
C0_LI_T006_0010_LSA	C0_I0535
C0_LI_T006_0010_LSA	C0_I0536
C0_LI_T006_0010_LSA	C0_I0537
C0_LI_T006_0010_LSA	C0_I0538
C0_LI_T006_0010_LSA	C0_I0539
C0_LI_T006_0010_LSA	C0_I0540
C0_LI_T006_0010_LSA	C0_I0541
C0_LI_T006_0010_LSA	C0_I0542
C0_LI_T006_0010_LSA	C0_I0543
C0_LI_T006_0010_LSA	C0_I0544
C0_LI_T006_0010_LSA	C0_I0545
C0_LI_T006_0010_LSA	C0_I0546
C0_LI_T006_0010_LSA	C0_I0547
C0_LI_T006_0010_LSA	C0_I0548
C0_LI_T006_0010_LSA	C0_I0549
C0_LI_T006_0010_LSA	C0_I0550
C0_LI_T006_0010_LSA	C0_I0551
C0_LI_T006_0010_LSA	C0_I0552
C0_LI_T006_0010_LSA	C0_I0553
C0_LI_T006_0010_LSA	C0_I0554
C0_LI_T006_0010_LSA	C0_I0555
C0_LI_T006_0010_LSA	C0_I0556
C0_LI_T006_0010_LSA	C0_I0557
C0_LI_T006_0010_LSA	C0_I0558
C0_LI_T006_0010_LSA	C0_I0559
C0_LI_T006_0010_LSA	C0_I0560
C0_LI_T006_0010_LSA	C0_I0561
C0_LI_T006_0010_LSA	C0_I0562
C0_LI_T006_0010_LSA	C0_I0563
C0_LI_T006_0010_LSA	C0_I0565
C0_LI_T006_0010_LSA	C0_I0566
C0_LI_T006_0010_LSA	C0_I0567
C0_LI_T006_0010_LSA	C0_I0568
C0_LI_T006_0010_LSA	C0_I0569
C0_LI_T006_0010_LSA	C0_I0570
C0_LI_T006_0010_LSA	C0_I0571
C0_LI_T006_0010_LSA	C0_I0572
C0_LI_T006_0010_LSA	C0_I0573
C0_LI_T006_0010_LSA	C0_I0574
C0_LI_T006_0010_LSA	C0_I0575
C0_LI_T006_0010_LSA	C0_I0576
C0_LI_T006_0010_LSA	C0_I0577
C0_LI_T006_0010_LSA	C0_I0578
C0_LI_T006_0010_LSA	C0_I0579
C0_LI_T006_0010_LSA	C0_I0580
C0_LI_T006_0010_LSA	C0_I0581
C0_LI_T006_0010_LSA	C0_I0582
C0_LI_T006_0010_LSA	C0_I0583
C0_LI_T006_0010_LSA	C0_I0584
C0_LI_T006_0010_LSA	C0_I0585
C0_LI_T006_0010_LSA	C0_I0586
C0_LI_T006_0010_LSA	C0_I0587
C0_LI_T006_0010_LSA	C0_I0588
C0_LI_T006_0010_LSA	C0_I0589
C0_LI_T006_0010_LSA	C0_I0597
C0_LI_T006_0010_LSA	C0_I0598
C0_LI_T006_0010_LSA	C0_I0599
C0_LI_T006_0010_LSA	C0_I0600
C0_LI_T006_0010_LSA	C0_I0601
C0_LI_T006_0010_LSA	C0_I0602
C0_LI_T006_0010_LSA	C0_I0603
C0_LI_T006_0010_LSA	C0_I0604
C0_LI_T006_0010_LSA	C0_I0605
C0_LI_T006_0010_LSA	C0_I0606
C0_LI_T006_0010_LSA	C0_I0607
C0_LI_T006_0010_LSA	C0_I0608
C0_LI_T006_0010_LSA	C0_I0609
C0_LI_T006_0010_LSA	C0_I0610
C0_LI_T006_0010_LSA	C0_I0611
C0_LI_T006_0002_LSA	C0_I0247
C0_LI_T006_0002_LSA	C0_I0054
C0_LI_T006_0002_LSA	C0_I0047
C0_LI_T006_0002_LSA	C0+I0473
C0_LI_T006_0002_LSA	C0+I0047
C0_LI_T006_0002_LSA	C0_I0413
C0_LI_T006_0002_LSA	C0_I0007
C0_LI_T006_0002_LSA	C0_I0334
C0_LI_T006_0002_LSA	C0_I0335
C0_LI_T006_0002_LSA	C0_I0336
C0_LI_T006_0002_LSA	C0_I0337
C0_LI_T006_0002_LSA	C0_I0093
C0_LI_T006_0002_LSA	C0_I0458
C0_LI_T006_0002_LSA	C0_I0073
C0_LI_T006_0002_LSA	C0_I0074
C0_LI_T006_0002_LSA	C0_I0279
C0_LI_T006_0002_LSA	C0_I0355
C0_LI_T006_0002_LSA	C0_I0049
C0_LI_T006_0002_LSA	C0_I0048
C0_LI_T006_0002_LSA	C0_I0052
C0_LI_T006_0002_LSA	C0_I0050
C0_LI_T006_0002_LSA	C0_I0051
C0_LI_T006_0002_LSA	C0_I0448
C0_LI_T006_0002_LSA	C0+I0448
C0_LI_T006_0002_LSA	C0_I0475
C0_LI_T006_0004_LSA	C0_I0002
C0_LI_T006_0005_LSA	C0+I0096
C0_LI_T006_0005_LSA	C0_I0003
C0_LI_T006_0005_LSA	C0_I0059
C0_LI_T006_0005_LSA	C0_I0053
C0_LI_T006_0005_LSA	C0_I0045
C0_LI_T006_0005_LSA	C0+I0445
C0_LI_T006_0005_LSA	C0+I0095
C0_LI_T006_0005_LSA	C0+I0208
C0_LI_T006_0005_LSA	C0+I0220
C0_LI_T006_0005_LSA	C0_I0035
C0_LI_T006_0005_LSA	C0_I0030
C0_LI_T006_0005_LSA	C0_I0031
C0_LI_T006_0005_LSA	C0_I0043
C0_LI_T006_0005_LSA	C0_I0041
C0_LI_T006_0005_LSA	C0_I0042
C0_LI_T006_0005_LSA	C0_I0111
C0_LI_T006_0005_LSA	C0_I0156
C0_LI_T006_0005_LSA	C0_I0465
C0_LI_T006_0005_LSA	C0_I0040
C0_LI_T006_0005_LSA	C0_I0441
C0_LI_T006_0005_LSA	C0_I0452
C0_LI_T006_0005_LSA	C0_I0453
C0_LI_T006_0005_LSA	C0_I0442
C0_LI_T006_0005_LSA	C0_I0450
C0_LI_T006_0005_LSA	C0_I0451
C0_LI_T006_0005_LSA	C0_I0460
C0_LI_T006_0005_LSA	C0_I0437
C0_LI_T006_0005_LSA	C0_I0439
C0_LI_T006_0005_LSA	C0_I0440
C0_LI_T006_0005_LSA	C0_I0438
C0_LI_T006_0005_LSA	C0_I0476
C0_LI_T006_0005_LSA	C0_I0590
C0_LI_T006_0005_LSA	C0_I0591
C0_LI_T006_0005_LSA	C0_I0592
C0_LI_T006_0005_LSA	C0_I0593
C0_LI_T006_0005_LSA	C0_I0594
C0_LI_T006_0005_LSA	C0_I0595
C0_LI_T006_0005_LSA	C0_I0596
C0_C_T005_0005_LSA	C0_I0003
C0_C_T005_0005_LSA	C0_I0059
C0_C_T005_0005_LSA	C0_I0053
C0_C_T005_0005_LSA	C0_I0045
C0_C_T005_0005_LSA	C0+I0445
C0_C_T005_0005_LSA	C0+I0095
C0_C_T005_0005_LSA	C0+I0099
C0_C_T005_0005_LSA	C0_I0346
C0_C_T005_0005_LSA	C0_I0063
C0_C_T005_0005_LSA	C0+I0062
C0_C_T005_0005_LSA	C0_I0101
C0_C_T005_0005_LSA	C0+I0107
C0_C_T005_0005_LSA	C0_I0380
C0_C_T005_0005_LSA	C0_I0141
C0_C_T005_0005_LSA	C0_I0361
C0_C_T005_0005_LSA	C0_I0243
C0_C_T005_0005_LSA	C0_I0242
C0_C_T005_0005_LSA	C0_I0371
C0_C_T005_0005_LSA	C0_I0411
C0_C_T005_0005_LSA	C0_I0412
C0_C_T005_0005_LSA	C0_I0323
C0_C_T005_0005_LSA	C0_I0437
C0_C_T005_0005_LSA	C0_I0593
C0_C_T005_0005_LSA	C0_I0596
C0_C_T005_0004_LSA	C0_I0004
C0_C_T005_0004_LSA	C0_I0020
C0_C_T005_0004_LSA	C0_I0129
C0_C_T005_0004_LSA	C0_I0131
C0_C_T005_0004_LSA	C0_I0082
C0_C_T005_0004_LSA	C0_I0482
C0_C_T005_0004_LSA	C0_I0288
C0_C_T005_0004_LSA	C0_I0287
C0_C_T005_0004_LSA	C0_I0345
C0_C_T005_0004_LSA	C0_I0012
C0_C_T005_0004_LSA	C0_I0105
C0_C_T005_0004_LSA	C0_I0104
C0_C_T005_0004_LSA	C0_I0213
C0_C_T005_0002_LSA	C0_I0247
C0_C_T005_0002_LSA	C0_I0054
C0_C_T005_0002_LSA	C0_I0186
C0_C_T005_0002_LSA	C0_I0187
C0_C_T005_0002_LSA	C0_I0047
C0_C_T005_0002_LSA	C0+I0473
C0_C_T005_0002_LSA	C0+I0047
C0_C_T005_0002_LSA	C0_I0413
C0_C_T005_0002_LSA	C0_I0007
C0_C_T005_0002_LSA	C0_I0199
C0_C_T005_0002_LSA	C0_I0333
C0_C_T005_0002_LSA	C0_I0241
C0_C_T005_0002_LSA	C0_I0443
C0_C_T005_0002_LSA	C0_I0167
C0_C_T005_0002_LSA	C0_I0169
C0_C_T005_0002_LSA	C0_I0170
C0_C_T005_0002_LSA	C0_I0044
C0_C_T005_0002_LSA	C0_I0173
C0_C_T005_0002_LSA	C0_I0210
C0_C_T005_0002_LSA	C0_I0148
C0_C_T005_0002_LSA	C0_I0448
C0_C_T005_0002_LSA	C0+I0448
C0_ST_T005_0005_LSA	C0_I0003
C0_ST_T005_0005_LSA	C0_I0059
C0_ST_T005_0005_LSA	C0_I0053
C0_ST_T005_0005_LSA	C0_I0045
C0_ST_T005_0005_LSA	C0+I0445
C0_ST_T005_0005_LSA	C0+I0095
C0_ST_T005_0005_LSA	C0+I0098
C0_ST_T005_0005_LSA	C0_I0035
C0_ST_T005_0005_LSA	C0_I0030
C0_ST_T005_0005_LSA	C0_I0031
C0_ST_T005_0005_LSA	C0_I0041
C0_ST_T005_0005_LSA	C0_I0043
C0_ST_T005_0005_LSA	C0_I0042
C0_ST_T005_0005_LSA	C0_I0111
C0_ST_T005_0005_LSA	C0_I0156
C0_ST_T005_0005_LSA	C0_I0465
C0_ST_T005_0005_LSA	C0_I0040
C0_ST_T005_0005_LSA	C0_I0285
C0_ST_T005_0005_LSA	C0_I0155
C0_ST_T005_0005_LSA	C0_I0027
C0_ST_T005_0005_LSA	C0_I0028
C0_ST_T005_0005_LSA	C0_I0154
C0_ST_T005_0005_LSA	C0_I0032
C0_ST_T005_0005_LSA	C0_I0034
C0_ST_T005_0005_LSA	C0_I0153
C0_ST_T005_0005_LSA	C0_I0036
C0_ST_T005_0005_LSA	C0_I0038
C0_ST_T005_0005_LSA	C0_I0039
C0_ST_T005_0005_LSA	C0_I0152
C0_ST_T005_0005_LSA	C0_I0151
C0_ST_T005_0005_LSA	C0_I0150
C0_ST_T005_0005_LSA	C0_I0141
C0_ST_T005_0005_LSA	C0_I0361
C0_ST_T005_0005_LSA	C0_I0243
C0_ST_T005_0005_LSA	C0_I0242
C0_ST_T005_0005_LSA	C0_I0371
C0_ST_T005_0005_LSA	C0_I0411
C0_ST_T005_0005_LSA	C0_I0412
C0_ST_T005_0005_LSA	C0_I0441
C0_ST_T005_0005_LSA	C0_I0452
C0_ST_T005_0005_LSA	C0_I0442
C0_ST_T005_0005_LSA	C0_I0450
C0_ST_T005_0005_LSA	C0_I0451
C0_ST_T005_0005_LSA	C0_I0437
C0_ST_T005_0005_LSA	C0_I0439
C0_ST_T005_0005_LSA	C0_I0440
C0_ST_T005_0005_LSA	C0_I0438
C0_ST_T005_0005_LSA	C0_I0593
C0_ST_T005_0005_LSA	C0_I0596
C0_ST_T005_0006_LSA	C0_I0483
C0_ST_T005_0006_LSA	C0_I0484
C0_ST_T005_0006_LSA	C0_I0485
C0_ST_T005_0006_LSA	C0_I0486
C0_ST_T005_0006_LSA	C0_I0487
C0_ST_T005_0006_LSA	C0_I0488
C0_ST_T005_0006_LSA	C0_I0489
C0_ST_T005_0006_LSA	C0_I0490
C0_ST_T005_0006_LSA	C0_I0491
C0_ST_T005_0006_LSA	C0_I0492
C0_ST_T005_0006_LSA	C0_I0493
C0_ST_T005_0006_LSA	C0_I0494
C0_ST_T005_0006_LSA	C0_I0495
C0_ST_T005_0006_LSA	C0_I0496
C0_ST_T005_0006_LSA	C0_I0497
C0_ST_T005_0006_LSA	C0_I0498
C0_ST_T005_0006_LSA	C0_I0499
C0_ST_T005_0006_LSA	C0_I0500
C0_ST_T005_0006_LSA	C0_I0501
C0_ST_T005_0006_LSA	C0_I0502
C0_ST_T005_0006_LSA	C0_I0503
C0_ST_T005_0006_LSA	C0_I0504
C0_ST_T005_0006_LSA	C0_I0505
C0_ST_T005_0006_LSA	C0_I0506
C0_ST_T005_0006_LSA	C0_I0507
C0_ST_T005_0006_LSA	C0_I0508
C0_ST_T005_0006_LSA	C0_I0509
C0_ST_T005_0006_LSA	C0_I0510
C0_ST_T005_0006_LSA	C0_I0511
C0_ST_T005_0006_LSA	C0_I0512
C0_ST_T005_0006_LSA	C0_I0513
C0_ST_T005_0006_LSA	C0_I0514
C0_ST_T005_0006_LSA	C0_I0515
C0_ST_T005_0006_LSA	C0_I0516
C0_ST_T005_0006_LSA	C0_I0517
C0_ST_T005_0006_LSA	C0_I0518
C0_ST_T005_0006_LSA	C0_I0519
C0_ST_T005_0006_LSA	C0_I0520
C0_ST_T005_0006_LSA	C0_I0521
C0_ST_T005_0006_LSA	C0_I0522
C0_ST_T005_0006_LSA	C0_I0523
C0_ST_T005_0006_LSA	C0_I0524
C0_ST_T005_0006_LSA	C0_I0525
C0_ST_T005_0006_LSA	C0_I0526
C0_ST_T005_0006_LSA	C0_I0527
C0_ST_T005_0006_LSA	C0_I0528
C0_ST_T005_0006_LSA	C0_I0529
C0_ST_T005_0006_LSA	C0_I0530
C0_ST_T005_0006_LSA	C0_I0531
C0_ST_T005_0006_LSA	C0_I0532
C0_ST_T005_0006_LSA	C0_I0533
C0_ST_T005_0006_LSA	C0_I0534
C0_ST_T005_0006_LSA	C0_I0535
C0_ST_T005_0006_LSA	C0_I0536
C0_ST_T005_0006_LSA	C0_I0537
C0_ST_T005_0006_LSA	C0_I0538
C0_ST_T005_0006_LSA	C0_I0539
C0_ST_T005_0006_LSA	C0_I0540
C0_ST_T005_0006_LSA	C0_I0541
C0_ST_T005_0006_LSA	C0_I0542
C0_ST_T005_0006_LSA	C0_I0543
C0_ST_T005_0006_LSA	C0_I0544
C0_ST_T005_0006_LSA	C0_I0545
C0_ST_T005_0006_LSA	C0_I0546
C0_ST_T005_0006_LSA	C0_I0547
C0_ST_T005_0006_LSA	C0_I0548
C0_ST_T005_0006_LSA	C0_I0549
C0_ST_T005_0006_LSA	C0_I0550
C0_ST_T005_0006_LSA	C0_I0551
C0_ST_T005_0006_LSA	C0_I0552
C0_ST_T005_0006_LSA	C0_I0553
C0_ST_T005_0006_LSA	C0_I0554
C0_ST_T005_0006_LSA	C0_I0555
C0_ST_T005_0006_LSA	C0_I0556
C0_ST_T005_0006_LSA	C0_I0557
C0_ST_T005_0006_LSA	C0_I0558
C0_ST_T005_0006_LSA	C0_I0559
C0_ST_T005_0006_LSA	C0_I0560
C0_ST_T005_0006_LSA	C0_I0561
C0_ST_T005_0006_LSA	C0_I0562
C0_ST_T005_0006_LSA	C0_I0563
C0_ST_T005_0006_LSA	C0_I0565
C0_ST_T005_0006_LSA	C0_I0566
C0_ST_T005_0006_LSA	C0_I0567
C0_ST_T005_0006_LSA	C0_I0568
C0_ST_T005_0006_LSA	C0_I0569
C0_ST_T005_0006_LSA	C0_I0570
C0_ST_T005_0006_LSA	C0_I0571
C0_ST_T005_0006_LSA	C0_I0572
C0_ST_T005_0006_LSA	C0_I0573
C0_ST_T005_0006_LSA	C0_I0574
C0_ST_T005_0006_LSA	C0_I0575
C0_ST_T005_0006_LSA	C0_I0576
C0_ST_T005_0006_LSA	C0_I0577
C0_ST_T005_0006_LSA	C0_I0578
C0_ST_T005_0006_LSA	C0_I0579
C0_ST_T005_0006_LSA	C0_I0580
C0_ST_T005_0006_LSA	C0_I0581
C0_ST_T005_0006_LSA	C0_I0582
C0_ST_T005_0006_LSA	C0_I0583
C0_ST_T005_0006_LSA	C0_I0584
C0_ST_T005_0006_LSA	C0_I0585
C0_ST_T005_0006_LSA	C0_I0586
C0_ST_T005_0006_LSA	C0_I0587
C0_ST_T005_0006_LSA	C0_I0588
C0_ST_T005_0006_LSA	C0_I0589
C0_ST_T005_0006_LSA	C0_I0597
C0_ST_T005_0006_LSA	C0_I0598
C0_ST_T005_0006_LSA	C0_I0599
C0_ST_T005_0006_LSA	C0_I0600
C0_ST_T005_0006_LSA	C0_I0601
C0_ST_T005_0006_LSA	C0_I0602
C0_ST_T005_0006_LSA	C0_I0603
C0_ST_T005_0006_LSA	C0_I0604
C0_ST_T005_0006_LSA	C0_I0605
C0_ST_T005_0006_LSA	C0_I0606
C0_ST_T005_0006_LSA	C0_I0607
C0_ST_T005_0006_LSA	C0_I0608
C0_ST_T005_0006_LSA	C0_I0609
C0_ST_T005_0006_LSA	C0_I0610
C0_ST_T005_0006_LSA	C0_I0611
C0_ST_T005_0004_LSA	C0_I0372
C0_ST_T005_0004_LSA	C0_I0373
C0_ST_T005_0004_LSA	C0_I0414
C0_ST_T005_0004_LSA	C0_I0002
C0_ST_T005_0004_LSA	C0_I0288
C0_ST_T005_0004_LSA	C0_I0287
C0_ST_T005_0004_LSA	C0_I0196
C0_ST_T005_0004_LSA	C0_I0012
C0_ST_T005_0004_LSA	C0_I0104
C0_ST_T005_0004_LSA	C0_I0127
C0_ST_T005_0004_LSA	C0_I0463
C0_ST_T005_0004_LSA	C0_I0464
C0_ST_T005_0004_LSA	C0_I0468
C0_ST_T005_0004_LSA	C0_I0469
C0_ST_T005_0004_LSA	C0_I0449
C0_ST_T005_0004_LSA	C0_I0022
C0_ST_T005_0004_LSA	C0_I0046
C0_ST_T005_0002_LSA	C0_I0148
C0_ST_T005_0002_LSA	C0_I0167
C0_ST_T005_0002_LSA	C0_I0047
C0_ST_T005_0002_LSA	C0+I0473
C0_ST_T005_0002_LSA	C0+I0047
C0_ST_T005_0002_LSA	C0_I0054
C0_ALL_I_LSA	C0+I0096
C0_ALL_I_LSA	C0+I0097
C0_IS_T001_0003_LSA	C0+IS162
C0_IS_T001_0003_LSA	C0+IS163
C0_IS_T001_0004_LSA	C0+IS015
C0_IS_T001_0004_LSA	C0+IS157
C0_IS_T001_0004_LSA	C0+IS158
C0_IS_T001_0004_LSA	C0+IS159
C0_IS_T001_0004_LSA	C0+IS160
C0_LSA	C0_AC_LSA
C0_AC_LSA	C0_AC_T001_LSA
C0_ALL_SA_LSA	C0_ALL_AC_LSA
C0_AC_T001_LSA	C0_AC001
C0_AC_T001_LSA	C0_AC002
C0_AC_T001_LSA	C0_AC003
C0_AC_T001_LSA	C0_AC004
C0_AC_T001_LSA	C0_AC005
C0_AC_T001_LSA	C0_AC006
C0_AC_T001_LSA	C0_AC007
C0_AC_T001_LSA	C0_AC008
C0_AC_T001_LSA	C0_AC009
C0_AC_T001_LSA	C0_AC010
C0_AC_T001_LSA	C0_AC011
C0_AC_T001_LSA	C0_AC012
C0_AC_T001_LSA	C0_AC013
C0_AC_T001_LSA	C0_AC014
C0_AC_T001_LSA	C0_AC015
C0_AC_T001_LSA	C0_AC016
C0_AC_T001_LSA	C0_AC017
C0_AC_T001_LSA	C0_AC018
C0_AC_T001_LSA	C0+AC016
C0_AC_T001_LSA	C0_AC019
C0_AC_T001_LSA	C0_AC019A
C0_AC_T001_LSA	C0_AC019B
C0_AC_T001_LSA	C0_AC019C
C0_AC_T001_LSA	C0_AC020
C0_AC_T001_LSA	C0_AC021
C0_AC_T001_LSA	C0_AC022
C0_AC_T001_LSA	C0+AC020
C0_AC_T001_LSA	C0_AC023
C0_AC_T001_LSA	C0_AC023A
C0_AC_T001_LSA	C0_AC023B
C0_AC_T001_LSA	C0_AC023C
C0_AC_T001_LSA	C0_AC023D
C0_AC_T001_LSA	C0_AC024
C0_AC_T001_LSA	C0_AC025
C0_AC_T001_LSA	C0_AC026
C0_AC_T001_LSA	C0+AC024
C0_AC_T001_LSA	C0_AC027
C0_AC_T001_LSA	C0_AC028
C0_AC_T001_LSA	C0_AC029
C0_AC_T001_LSA	C0+AC029
C0_AC_T001_LSA	C0+AC030
C0_AC_T001_LSA	C0_AC031
C0_AC_T001_LSA	C0+AC031
C0_AC_T001_LSA	C0_AC032
C0_ALL_AC_LSA	C0_AC001
C0_ALL_AC_LSA	C0_AC002
C0_ALL_AC_LSA	C0_AC003
C0_ALL_AC_LSA	C0_AC004
C0_ALL_AC_LSA	C0_AC005
C0_ALL_AC_LSA	C0_AC006
C0_ALL_AC_LSA	C0_AC007
C0_ALL_AC_LSA	C0_AC008
C0_ALL_AC_LSA	C0_AC009
C0_ALL_AC_LSA	C0_AC010
C0_ALL_AC_LSA	C0_AC011
C0_ALL_AC_LSA	C0_AC012
C0_ALL_AC_LSA	C0_AC013
C0_ALL_AC_LSA	C0_AC014
C0_ALL_AC_LSA	C0_AC015
C0_ALL_AC_LSA	C0_AC016
C0_ALL_AC_LSA	C0_AC017
C0_ALL_AC_LSA	C0_AC018
C0_ALL_AC_LSA	C0+AC016
C0_ALL_AC_LSA	C0_AC019
C0_ALL_AC_LSA	C0_AC019A
C0_ALL_AC_LSA	C0_AC019B
C0_ALL_AC_LSA	C0_AC019C
C0_ALL_AC_LSA	C0_AC020
C0_ALL_AC_LSA	C0_AC021
C0_ALL_AC_LSA	C0_AC022
C0_ALL_AC_LSA	C0+AC020
C0_ALL_AC_LSA	C0_AC023
C0_ALL_AC_LSA	C0_AC023A
C0_ALL_AC_LSA	C0_AC023B
C0_ALL_AC_LSA	C0_AC023C
C0_ALL_AC_LSA	C0_AC023D
C0_ALL_AC_LSA	C0_AC024
C0_ALL_AC_LSA	C0_AC025
C0_ALL_AC_LSA	C0_AC026
C0_ALL_AC_LSA	C0+AC024
C0_ALL_AC_LSA	C0_AC027
C0_ALL_AC_LSA	C0_AC028
C0_ALL_AC_LSA	C0_AC029
C0_ALL_AC_LSA	C0+AC029
C0_ALL_AC_LSA	C0+AC030
C0_ALL_AC_LSA	C0_AC031
C0_ALL_AC_LSA	C0+AC031
C0_ALL_AC_LSA	C0_AC032
